-- Merging decision tree log ---
manifest
ADDED from C:\Users\Joni2\Jonathan2\Programming\AcademyClash\AcademyClash\app\src\main\AndroidManifest.xml:2:1-32:12
INJECTED from C:\Users\Joni2\Jonathan2\Programming\AcademyClash\AcademyClash\app\src\main\AndroidManifest.xml:2:1-32:12
INJECTED from C:\Users\Joni2\Jonathan2\Programming\AcademyClash\AcademyClash\app\src\main\AndroidManifest.xml:2:1-32:12
INJECTED from C:\Users\Joni2\Jonathan2\Programming\AcademyClash\AcademyClash\app\src\main\AndroidManifest.xml:2:1-32:12
MERGED from [androidx.databinding:viewbinding:7.0.2] C:\Users\Joni2\.gradle\caches\transforms-3\620e574f95cf7e7e93ac68ed08666fcb\transformed\jetified-viewbinding-7.0.2\AndroidManifest.xml:17:1-22:12
MERGED from [com.github.nitishp:sheetmusicview:v1.2.0] C:\Users\Joni2\.gradle\caches\transforms-3\c271fc349c7d9bb3b55b74e98b0f3fd7\transformed\jetified-sheetmusicview-v1.2.0\AndroidManifest.xml:2:1-17:12
MERGED from [androidx.navigation:navigation-ui:2.4.2] C:\Users\Joni2\.gradle\caches\transforms-3\a16c28026c73d4630c4b4cc159f48884\transformed\navigation-ui-2.4.2\AndroidManifest.xml:17:1-24:12
MERGED from [com.google.android.material:material:1.7.0-alpha02] C:\Users\Joni2\.gradle\caches\transforms-3\98dc792bc5d378fa8a36daba1d3f6e40\transformed\material-1.7.0-alpha02\AndroidManifest.xml:17:1-26:12
MERGED from [androidx.constraintlayout:constraintlayout:2.1.4] C:\Users\Joni2\.gradle\caches\transforms-3\457a8183be404b592d4cf92cb8b951e9\transformed\constraintlayout-2.1.4\AndroidManifest.xml:2:1-11:12
MERGED from [androidx.appcompat:appcompat:1.4.2] C:\Users\Joni2\.gradle\caches\transforms-3\36c4af9368396ac7180ac4f1b31cfd03\transformed\appcompat-1.4.2\AndroidManifest.xml:17:1-24:12
MERGED from [androidx.legacy:legacy-support-v4:1.0.0] C:\Users\Joni2\.gradle\caches\transforms-3\7bc9124ddd25bef25a020b51d9d428ba\transformed\legacy-support-v4-1.0.0\AndroidManifest.xml:17:1-22:12
MERGED from [com.google.firebase:firebase-auth:21.0.6] C:\Users\Joni2\.gradle\caches\transforms-3\6e8d76e76c220353a98f8df1ad5373fb\transformed\jetified-firebase-auth-21.0.6\AndroidManifest.xml:17:1-73:12
MERGED from [androidx.viewpager2:viewpager2:1.0.0] C:\Users\Joni2\.gradle\caches\transforms-3\8fd6eea0562aea14f3bc71e06ead11c9\transformed\jetified-viewpager2-1.0.0\AndroidManifest.xml:17:1-24:12
MERGED from [com.google.firebase:firebase-database:20.0.5] C:\Users\Joni2\.gradle\caches\transforms-3\89cebddef84d18773cd1d9151445d59e\transformed\jetified-firebase-database-20.0.5\AndroidManifest.xml:15:1-38:12
MERGED from [com.google.android.gms:play-services-auth-api-phone:17.4.0] C:\Users\Joni2\.gradle\caches\transforms-3\d244694a7cf60b68f6360e6d4d149cbd\transformed\jetified-play-services-auth-api-phone-17.4.0\AndroidManifest.xml:2:1-7:12
MERGED from [com.google.android.gms:play-services-safetynet:17.0.0] C:\Users\Joni2\.gradle\caches\transforms-3\d39720dfd11c84abbb1765362ab7e280\transformed\jetified-play-services-safetynet-17.0.0\AndroidManifest.xml:17:1-24:12
MERGED from [com.google.firebase:firebase-storage:20.0.1] C:\Users\Joni2\.gradle\caches\transforms-3\a8fd3f7185e0ce510983f625c40e9827\transformed\jetified-firebase-storage-20.0.1\AndroidManifest.xml:15:1-39:12
MERGED from [com.google.firebase:firebase-auth-interop:20.0.0] C:\Users\Joni2\.gradle\caches\transforms-3\cc0c490645cb5c8ef7069804dff9c2ae\transformed\jetified-firebase-auth-interop-20.0.0\AndroidManifest.xml:2:1-10:12
MERGED from [com.google.firebase:firebase-appcheck-interop:16.0.0] C:\Users\Joni2\.gradle\caches\transforms-3\7f5c83eab9f3d35c2f5c8101ba336bd6\transformed\jetified-firebase-appcheck-interop-16.0.0\AndroidManifest.xml:15:1-26:12
MERGED from [com.google.firebase:firebase-common:20.1.1] C:\Users\Joni2\.gradle\caches\transforms-3\496f0496aa2e10d691df166796e850d2\transformed\jetified-firebase-common-20.1.1\AndroidManifest.xml:15:1-40:12
MERGED from [com.google.firebase:firebase-database-collection:18.0.1] C:\Users\Joni2\.gradle\caches\transforms-3\5b76e9fc004f206d51090162f065c4df\transformed\jetified-firebase-database-collection-18.0.1\AndroidManifest.xml:2:1-9:12
MERGED from [com.google.android.gms:play-services-base:18.0.1] C:\Users\Joni2\.gradle\caches\transforms-3\a8cf32c6afdc7e65150bdcaece7a55c5\transformed\jetified-play-services-base-18.0.1\AndroidManifest.xml:16:1-24:12
MERGED from [com.google.android.gms:play-services-tasks:18.0.1] C:\Users\Joni2\.gradle\caches\transforms-3\5034b1d5cf966fe6982e892bf44b600d\transformed\jetified-play-services-tasks-18.0.1\AndroidManifest.xml:2:1-6:12
MERGED from [com.google.android.gms:play-services-basement:18.0.0] C:\Users\Joni2\.gradle\caches\transforms-3\998f6cbdc4c44c85ed633c1dc853989c\transformed\jetified-play-services-basement-18.0.0\AndroidManifest.xml:16:1-26:12
MERGED from [androidx.navigation:navigation-fragment:2.4.2] C:\Users\Joni2\.gradle\caches\transforms-3\0f23775dd914f436b7841a7b9762dac6\transformed\navigation-fragment-2.4.2\AndroidManifest.xml:17:1-24:12
MERGED from [androidx.fragment:fragment-ktx:1.4.1] C:\Users\Joni2\.gradle\caches\transforms-3\346f3e1b39aa5d7f976771ec7e080e5a\transformed\jetified-fragment-ktx-1.4.1\AndroidManifest.xml:17:1-24:12
MERGED from [androidx.fragment:fragment:1.4.1] C:\Users\Joni2\.gradle\caches\transforms-3\5b092e600643ed241ca4a5b583eb14f1\transformed\fragment-1.4.1\AndroidManifest.xml:17:1-24:12
MERGED from [androidx.navigation:navigation-runtime:2.4.2] C:\Users\Joni2\.gradle\caches\transforms-3\9aaae2e0518801a1f3a97e90ee670f1a\transformed\navigation-runtime-2.4.2\AndroidManifest.xml:17:1-24:12
MERGED from [androidx.activity:activity-ktx:1.2.3] C:\Users\Joni2\.gradle\caches\transforms-3\72ae375a5ba6c51434680e8a007677fa\transformed\jetified-activity-ktx-1.2.3\AndroidManifest.xml:17:1-24:12
MERGED from [androidx.activity:activity:1.2.4] C:\Users\Joni2\.gradle\caches\transforms-3\d0a79b936e419dd387b875699ee4b62c\transformed\jetified-activity-1.2.4\AndroidManifest.xml:17:1-24:12
MERGED from [androidx.appcompat:appcompat-resources:1.4.2] C:\Users\Joni2\.gradle\caches\transforms-3\7dbc8880850da96714784058b883676d\transformed\jetified-appcompat-resources-1.4.2\AndroidManifest.xml:17:1-24:12
MERGED from [androidx.emoji2:emoji2-views-helper:1.0.0] C:\Users\Joni2\.gradle\caches\transforms-3\d0471ed6f02cec81f1b4078c860ad6ce\transformed\jetified-emoji2-views-helper-1.0.0\AndroidManifest.xml:17:1-24:12
MERGED from [androidx.emoji2:emoji2:1.0.0] C:\Users\Joni2\.gradle\caches\transforms-3\4b60651704c7d8651ad2c3503bb38c73\transformed\jetified-emoji2-1.0.0\AndroidManifest.xml:17:1-37:12
MERGED from [androidx.legacy:legacy-support-core-ui:1.0.0] C:\Users\Joni2\.gradle\caches\transforms-3\6fb69af6583698668532bf0fd35caf8f\transformed\legacy-support-core-ui-1.0.0\AndroidManifest.xml:17:1-22:12
MERGED from [androidx.drawerlayout:drawerlayout:1.1.1] C:\Users\Joni2\.gradle\caches\transforms-3\b67812afff6c750eef31b2f5aecf4fb6\transformed\drawerlayout-1.1.1\AndroidManifest.xml:17:1-24:12
MERGED from [androidx.coordinatorlayout:coordinatorlayout:1.1.0] C:\Users\Joni2\.gradle\caches\transforms-3\8eea484709a67dddc1ab9ae1893abd2b\transformed\coordinatorlayout-1.1.0\AndroidManifest.xml:17:1-24:12
MERGED from [androidx.dynamicanimation:dynamicanimation:1.0.0] C:\Users\Joni2\.gradle\caches\transforms-3\8a7b9e471f23c1540e322373ba839543\transformed\dynamicanimation-1.0.0\AndroidManifest.xml:17:1-22:12
MERGED from [androidx.vectordrawable:vectordrawable-animated:1.1.0] C:\Users\Joni2\.gradle\caches\transforms-3\781dd23490527cfee6df6b2cc663fc9a\transformed\vectordrawable-animated-1.1.0\AndroidManifest.xml:17:1-24:12
MERGED from [androidx.vectordrawable:vectordrawable:1.1.0] C:\Users\Joni2\.gradle\caches\transforms-3\fb357798e0a06fc931bb8f4dac764065\transformed\vectordrawable-1.1.0\AndroidManifest.xml:17:1-24:12
MERGED from [androidx.browser:browser:1.4.0] C:\Users\Joni2\.gradle\caches\transforms-3\c1a9fc3c5bfad52fc61ea29132ad913f\transformed\browser-1.4.0\AndroidManifest.xml:17:1-24:12
MERGED from [androidx.slidingpanelayout:slidingpanelayout:1.2.0] C:\Users\Joni2\.gradle\caches\transforms-3\00ef0cda33b51ca1d1e558bef973a6aa\transformed\slidingpanelayout-1.2.0\AndroidManifest.xml:17:1-24:12
MERGED from [androidx.viewpager:viewpager:1.0.0] C:\Users\Joni2\.gradle\caches\transforms-3\f0e1dca14b5ed3fe159b41cdf0cbf790\transformed\viewpager-1.0.0\AndroidManifest.xml:17:1-22:12
MERGED from [androidx.recyclerview:recyclerview:1.1.0] C:\Users\Joni2\.gradle\caches\transforms-3\52b8a03cfc4c20a0c9c78819018423c4\transformed\recyclerview-1.1.0\AndroidManifest.xml:17:1-24:12
MERGED from [androidx.customview:customview:1.1.0] C:\Users\Joni2\.gradle\caches\transforms-3\dcb62ce1a3c954b541338f55f5bfa38e\transformed\customview-1.1.0\AndroidManifest.xml:17:1-24:12
MERGED from [androidx.media:media:1.0.0] C:\Users\Joni2\.gradle\caches\transforms-3\bc549059837f713a6813ae954483e241\transformed\media-1.0.0\AndroidManifest.xml:17:1-22:12
MERGED from [androidx.legacy:legacy-support-core-utils:1.0.0] C:\Users\Joni2\.gradle\caches\transforms-3\d7d271375ded6eff316edd27ceb0072d\transformed\legacy-support-core-utils-1.0.0\AndroidManifest.xml:17:1-22:12
MERGED from [androidx.loader:loader:1.0.0] C:\Users\Joni2\.gradle\caches\transforms-3\21aff1fa3790b705ad8e19b1c47e0d56\transformed\loader-1.0.0\AndroidManifest.xml:17:1-22:12
MERGED from [androidx.navigation:navigation-common:2.4.2] C:\Users\Joni2\.gradle\caches\transforms-3\e3eacd93c50d4147b4d14048e2fb8b55\transformed\navigation-common-2.4.2\AndroidManifest.xml:17:1-24:12
MERGED from [androidx.core:core-ktx:1.2.0] C:\Users\Joni2\.gradle\caches\transforms-3\b8215b24ff7af34398018557bffa766d\transformed\jetified-core-ktx-1.2.0\AndroidManifest.xml:2:1-9:12
MERGED from [androidx.transition:transition:1.4.1] C:\Users\Joni2\.gradle\caches\transforms-3\e151c3f7a237527cad6daa03e4cf6aee\transformed\transition-1.4.1\AndroidManifest.xml:17:1-24:12
MERGED from [androidx.window:window:1.0.0] C:\Users\Joni2\.gradle\caches\transforms-3\87c5c438b7756221a2ec6dd9152be528\transformed\jetified-window-1.0.0\AndroidManifest.xml:17:1-33:12
MERGED from [androidx.swiperefreshlayout:swiperefreshlayout:1.0.0] C:\Users\Joni2\.gradle\caches\transforms-3\634062af7ba6565b6ce63935447f68fe\transformed\swiperefreshlayout-1.0.0\AndroidManifest.xml:17:1-22:12
MERGED from [androidx.asynclayoutinflater:asynclayoutinflater:1.0.0] C:\Users\Joni2\.gradle\caches\transforms-3\343c797141be332cf662fb965493c0b7\transformed\asynclayoutinflater-1.0.0\AndroidManifest.xml:17:1-22:12
MERGED from [androidx.core:core:1.8.0] C:\Users\Joni2\.gradle\caches\transforms-3\fc017b1bfa621db63b3547bb6f031025\transformed\core-1.8.0\AndroidManifest.xml:17:1-26:12
MERGED from [androidx.lifecycle:lifecycle-livedata-ktx:2.4.1] C:\Users\Joni2\.gradle\caches\transforms-3\5119b0c07237f747bec1f0e6fb3f5277\transformed\jetified-lifecycle-livedata-ktx-2.4.1\AndroidManifest.xml:17:1-24:12
MERGED from [androidx.lifecycle:lifecycle-viewmodel-ktx:2.4.1] C:\Users\Joni2\.gradle\caches\transforms-3\5d83b8f2dc5bc7f953acae22d99b5c15\transformed\jetified-lifecycle-viewmodel-ktx-2.4.1\AndroidManifest.xml:17:1-24:12
MERGED from [androidx.versionedparcelable:versionedparcelable:1.1.1] C:\Users\Joni2\.gradle\caches\transforms-3\4a2dc31dca41ceabe72d8efa19d292bf\transformed\versionedparcelable-1.1.1\AndroidManifest.xml:17:1-27:12
MERGED from [androidx.cursoradapter:cursoradapter:1.0.0] C:\Users\Joni2\.gradle\caches\transforms-3\3727d41d965d68ffe5020a108ad2f770\transformed\cursoradapter-1.0.0\AndroidManifest.xml:17:1-22:12
MERGED from [androidx.lifecycle:lifecycle-viewmodel-savedstate:2.3.1] C:\Users\Joni2\.gradle\caches\transforms-3\60c29e3303dcf5243bee8bf4b7c5e277\transformed\jetified-lifecycle-viewmodel-savedstate-2.3.1\AndroidManifest.xml:17:1-24:12
MERGED from [androidx.savedstate:savedstate-ktx:1.1.0] C:\Users\Joni2\.gradle\caches\transforms-3\2e3f0f0d40df1156effe9554d9ea7e47\transformed\jetified-savedstate-ktx-1.1.0\AndroidManifest.xml:17:1-24:12
MERGED from [androidx.savedstate:savedstate:1.1.0] C:\Users\Joni2\.gradle\caches\transforms-3\fbb142ee1815151d8084e34648d018ac\transformed\jetified-savedstate-1.1.0\AndroidManifest.xml:17:1-24:12
MERGED from [androidx.cardview:cardview:1.0.0] C:\Users\Joni2\.gradle\caches\transforms-3\b5a1dde354f7afc013622ec6eac7dc84\transformed\cardview-1.0.0\AndroidManifest.xml:17:1-22:12
MERGED from [androidx.localbroadcastmanager:localbroadcastmanager:1.0.0] C:\Users\Joni2\.gradle\caches\transforms-3\8d4069d8883cd35818f5c173a3837002\transformed\localbroadcastmanager-1.0.0\AndroidManifest.xml:17:1-22:12
MERGED from [com.google.firebase:firebase-components:17.0.0] C:\Users\Joni2\.gradle\caches\transforms-3\82f0742619c93bff749e298ff0daa035\transformed\jetified-firebase-components-17.0.0\AndroidManifest.xml:15:1-23:12
MERGED from [androidx.lifecycle:lifecycle-viewmodel:2.4.1] C:\Users\Joni2\.gradle\caches\transforms-3\75eaaf2d142f08e75cfdf34b115b044e\transformed\lifecycle-viewmodel-2.4.1\AndroidManifest.xml:17:1-24:12
MERGED from [androidx.lifecycle:lifecycle-livedata:2.4.1] C:\Users\Joni2\.gradle\caches\transforms-3\96536084a99b4fc80012186b5062769c\transformed\lifecycle-livedata-2.4.1\AndroidManifest.xml:17:1-24:12
MERGED from [androidx.lifecycle:lifecycle-livedata-core-ktx:2.4.1] C:\Users\Joni2\.gradle\caches\transforms-3\f6cea9d5f2016db59db30551ad641019\transformed\jetified-lifecycle-livedata-core-ktx-2.4.1\AndroidManifest.xml:17:1-24:12
MERGED from [androidx.lifecycle:lifecycle-livedata-core:2.4.1] C:\Users\Joni2\.gradle\caches\transforms-3\f2c9802ffe172297880d6a2484f31a37\transformed\lifecycle-livedata-core-2.4.1\AndroidManifest.xml:17:1-24:12
MERGED from [androidx.lifecycle:lifecycle-process:2.4.0] C:\Users\Joni2\.gradle\caches\transforms-3\62e87c3cfe17c830dad51da22e55359f\transformed\jetified-lifecycle-process-2.4.0\AndroidManifest.xml:17:1-37:12
MERGED from [androidx.lifecycle:lifecycle-runtime-ktx:2.3.1] C:\Users\Joni2\.gradle\caches\transforms-3\c55488c14f6fd659811cb5fda026a110\transformed\jetified-lifecycle-runtime-ktx-2.3.1\AndroidManifest.xml:17:1-24:12
MERGED from [androidx.lifecycle:lifecycle-runtime:2.4.0] C:\Users\Joni2\.gradle\caches\transforms-3\11012e34cfa220e9f58a7d557643f386\transformed\lifecycle-runtime-2.4.0\AndroidManifest.xml:17:1-24:12
MERGED from [androidx.arch.core:core-runtime:2.1.0] C:\Users\Joni2\.gradle\caches\transforms-3\9692f4eff85761d20785aa5053f9ebcb\transformed\core-runtime-2.1.0\AndroidManifest.xml:17:1-24:12
MERGED from [androidx.startup:startup-runtime:1.0.0] C:\Users\Joni2\.gradle\caches\transforms-3\6e2cdf1f1e9a31a51efd2c74a8f81718\transformed\jetified-startup-runtime-1.0.0\AndroidManifest.xml:17:1-33:12
MERGED from [androidx.tracing:tracing:1.0.0] C:\Users\Joni2\.gradle\caches\transforms-3\59b41095d2f1061113aab46acc35c68a\transformed\jetified-tracing-1.0.0\AndroidManifest.xml:17:1-24:12
MERGED from [androidx.interpolator:interpolator:1.0.0] C:\Users\Joni2\.gradle\caches\transforms-3\d3f87aa4861bbafadab8253cbbec58bc\transformed\interpolator-1.0.0\AndroidManifest.xml:17:1-22:12
MERGED from [androidx.documentfile:documentfile:1.0.0] C:\Users\Joni2\.gradle\caches\transforms-3\783b035d32ce5be15ab468001bd7362a\transformed\documentfile-1.0.0\AndroidManifest.xml:17:1-22:12
MERGED from [androidx.print:print:1.0.0] C:\Users\Joni2\.gradle\caches\transforms-3\84046498be48793439a4476136a93af1\transformed\print-1.0.0\AndroidManifest.xml:17:1-22:12
MERGED from [androidx.annotation:annotation-experimental:1.1.0] C:\Users\Joni2\.gradle\caches\transforms-3\737d9ff2c32889bb2521aaf2bc07e3c5\transformed\jetified-annotation-experimental-1.1.0\AndroidManifest.xml:17:1-24:12
INJECTED from C:\Users\Joni2\Jonathan2\Programming\AcademyClash\AcademyClash\app\src\main\AndroidManifest.xml:2:1-32:12
INJECTED from C:\Users\Joni2\Jonathan2\Programming\AcademyClash\AcademyClash\app\src\main\AndroidManifest.xml:2:1-32:12
INJECTED from C:\Users\Joni2\Jonathan2\Programming\AcademyClash\AcademyClash\app\src\main\AndroidManifest.xml:2:1-32:12
	package
		ADDED from C:\Users\Joni2\Jonathan2\Programming\AcademyClash\AcademyClash\app\src\main\AndroidManifest.xml:3:5-39
		INJECTED from C:\Users\Joni2\Jonathan2\Programming\AcademyClash\AcademyClash\app\src\main\AndroidManifest.xml
		INJECTED from C:\Users\Joni2\Jonathan2\Programming\AcademyClash\AcademyClash\app\src\main\AndroidManifest.xml
	android:versionName
		INJECTED from C:\Users\Joni2\Jonathan2\Programming\AcademyClash\AcademyClash\app\src\main\AndroidManifest.xml
		ADDED from C:\Users\Joni2\Jonathan2\Programming\AcademyClash\AcademyClash\app\src\main\AndroidManifest.xml:2:1-32:12
		INJECTED from C:\Users\Joni2\Jonathan2\Programming\AcademyClash\AcademyClash\app\src\main\AndroidManifest.xml
	android:versionCode
		INJECTED from C:\Users\Joni2\Jonathan2\Programming\AcademyClash\AcademyClash\app\src\main\AndroidManifest.xml
		ADDED from C:\Users\Joni2\Jonathan2\Programming\AcademyClash\AcademyClash\app\src\main\AndroidManifest.xml:2:1-32:12
		INJECTED from C:\Users\Joni2\Jonathan2\Programming\AcademyClash\AcademyClash\app\src\main\AndroidManifest.xml
	xmlns:android
		ADDED from C:\Users\Joni2\Jonathan2\Programming\AcademyClash\AcademyClash\app\src\main\AndroidManifest.xml:2:11-69
uses-permission#android.permission.INTERNET
ADDED from C:\Users\Joni2\Jonathan2\Programming\AcademyClash\AcademyClash\app\src\main\AndroidManifest.xml:6:5-67
MERGED from [com.google.firebase:firebase-auth:21.0.6] C:\Users\Joni2\.gradle\caches\transforms-3\6e8d76e76c220353a98f8df1ad5373fb\transformed\jetified-firebase-auth-21.0.6\AndroidManifest.xml:23:5-67
MERGED from [com.google.firebase:firebase-auth:21.0.6] C:\Users\Joni2\.gradle\caches\transforms-3\6e8d76e76c220353a98f8df1ad5373fb\transformed\jetified-firebase-auth-21.0.6\AndroidManifest.xml:23:5-67
MERGED from [com.google.firebase:firebase-database:20.0.5] C:\Users\Joni2\.gradle\caches\transforms-3\89cebddef84d18773cd1d9151445d59e\transformed\jetified-firebase-database-20.0.5\AndroidManifest.xml:26:5-67
MERGED from [com.google.firebase:firebase-database:20.0.5] C:\Users\Joni2\.gradle\caches\transforms-3\89cebddef84d18773cd1d9151445d59e\transformed\jetified-firebase-database-20.0.5\AndroidManifest.xml:26:5-67
MERGED from [com.google.firebase:firebase-storage:20.0.1] C:\Users\Joni2\.gradle\caches\transforms-3\a8fd3f7185e0ce510983f625c40e9827\transformed\jetified-firebase-storage-20.0.1\AndroidManifest.xml:27:5-67
MERGED from [com.google.firebase:firebase-storage:20.0.1] C:\Users\Joni2\.gradle\caches\transforms-3\a8fd3f7185e0ce510983f625c40e9827\transformed\jetified-firebase-storage-20.0.1\AndroidManifest.xml:27:5-67
	android:name
		ADDED from C:\Users\Joni2\Jonathan2\Programming\AcademyClash\AcademyClash\app\src\main\AndroidManifest.xml:6:22-64
uses-permission#android.permission.SET_ALARM
ADDED from C:\Users\Joni2\Jonathan2\Programming\AcademyClash\AcademyClash\app\src\main\AndroidManifest.xml:7:5-67
	android:name
		ADDED from C:\Users\Joni2\Jonathan2\Programming\AcademyClash\AcademyClash\app\src\main\AndroidManifest.xml:7:22-65
application
ADDED from C:\Users\Joni2\Jonathan2\Programming\AcademyClash\AcademyClash\app\src\main\AndroidManifest.xml:11:5-30:19
MERGED from [com.github.nitishp:sheetmusicview:v1.2.0] C:\Users\Joni2\.gradle\caches\transforms-3\c271fc349c7d9bb3b55b74e98b0f3fd7\transformed\jetified-sheetmusicview-v1.2.0\AndroidManifest.xml:11:5-15:19
MERGED from [com.github.nitishp:sheetmusicview:v1.2.0] C:\Users\Joni2\.gradle\caches\transforms-3\c271fc349c7d9bb3b55b74e98b0f3fd7\transformed\jetified-sheetmusicview-v1.2.0\AndroidManifest.xml:11:5-15:19
MERGED from [com.google.android.material:material:1.7.0-alpha02] C:\Users\Joni2\.gradle\caches\transforms-3\98dc792bc5d378fa8a36daba1d3f6e40\transformed\material-1.7.0-alpha02\AndroidManifest.xml:24:5-20
MERGED from [com.google.android.material:material:1.7.0-alpha02] C:\Users\Joni2\.gradle\caches\transforms-3\98dc792bc5d378fa8a36daba1d3f6e40\transformed\material-1.7.0-alpha02\AndroidManifest.xml:24:5-20
MERGED from [androidx.constraintlayout:constraintlayout:2.1.4] C:\Users\Joni2\.gradle\caches\transforms-3\457a8183be404b592d4cf92cb8b951e9\transformed\constraintlayout-2.1.4\AndroidManifest.xml:9:5-20
MERGED from [androidx.constraintlayout:constraintlayout:2.1.4] C:\Users\Joni2\.gradle\caches\transforms-3\457a8183be404b592d4cf92cb8b951e9\transformed\constraintlayout-2.1.4\AndroidManifest.xml:9:5-20
MERGED from [com.google.firebase:firebase-auth:21.0.6] C:\Users\Joni2\.gradle\caches\transforms-3\6e8d76e76c220353a98f8df1ad5373fb\transformed\jetified-firebase-auth-21.0.6\AndroidManifest.xml:26:5-71:19
MERGED from [com.google.firebase:firebase-auth:21.0.6] C:\Users\Joni2\.gradle\caches\transforms-3\6e8d76e76c220353a98f8df1ad5373fb\transformed\jetified-firebase-auth-21.0.6\AndroidManifest.xml:26:5-71:19
MERGED from [com.google.firebase:firebase-database:20.0.5] C:\Users\Joni2\.gradle\caches\transforms-3\89cebddef84d18773cd1d9151445d59e\transformed\jetified-firebase-database-20.0.5\AndroidManifest.xml:28:5-36:19
MERGED from [com.google.firebase:firebase-database:20.0.5] C:\Users\Joni2\.gradle\caches\transforms-3\89cebddef84d18773cd1d9151445d59e\transformed\jetified-firebase-database-20.0.5\AndroidManifest.xml:28:5-36:19
MERGED from [com.google.android.gms:play-services-safetynet:17.0.0] C:\Users\Joni2\.gradle\caches\transforms-3\d39720dfd11c84abbb1765362ab7e280\transformed\jetified-play-services-safetynet-17.0.0\AndroidManifest.xml:22:5-20
MERGED from [com.google.android.gms:play-services-safetynet:17.0.0] C:\Users\Joni2\.gradle\caches\transforms-3\d39720dfd11c84abbb1765362ab7e280\transformed\jetified-play-services-safetynet-17.0.0\AndroidManifest.xml:22:5-20
MERGED from [com.google.firebase:firebase-storage:20.0.1] C:\Users\Joni2\.gradle\caches\transforms-3\a8fd3f7185e0ce510983f625c40e9827\transformed\jetified-firebase-storage-20.0.1\AndroidManifest.xml:29:5-37:19
MERGED from [com.google.firebase:firebase-storage:20.0.1] C:\Users\Joni2\.gradle\caches\transforms-3\a8fd3f7185e0ce510983f625c40e9827\transformed\jetified-firebase-storage-20.0.1\AndroidManifest.xml:29:5-37:19
MERGED from [com.google.firebase:firebase-auth-interop:20.0.0] C:\Users\Joni2\.gradle\caches\transforms-3\cc0c490645cb5c8ef7069804dff9c2ae\transformed\jetified-firebase-auth-interop-20.0.0\AndroidManifest.xml:7:5-8:19
MERGED from [com.google.firebase:firebase-auth-interop:20.0.0] C:\Users\Joni2\.gradle\caches\transforms-3\cc0c490645cb5c8ef7069804dff9c2ae\transformed\jetified-firebase-auth-interop-20.0.0\AndroidManifest.xml:7:5-8:19
MERGED from [com.google.firebase:firebase-appcheck-interop:16.0.0] C:\Users\Joni2\.gradle\caches\transforms-3\7f5c83eab9f3d35c2f5c8101ba336bd6\transformed\jetified-firebase-appcheck-interop-16.0.0\AndroidManifest.xml:24:5-20
MERGED from [com.google.firebase:firebase-appcheck-interop:16.0.0] C:\Users\Joni2\.gradle\caches\transforms-3\7f5c83eab9f3d35c2f5c8101ba336bd6\transformed\jetified-firebase-appcheck-interop-16.0.0\AndroidManifest.xml:24:5-20
MERGED from [com.google.firebase:firebase-common:20.1.1] C:\Users\Joni2\.gradle\caches\transforms-3\496f0496aa2e10d691df166796e850d2\transformed\jetified-firebase-common-20.1.1\AndroidManifest.xml:25:5-38:19
MERGED from [com.google.firebase:firebase-common:20.1.1] C:\Users\Joni2\.gradle\caches\transforms-3\496f0496aa2e10d691df166796e850d2\transformed\jetified-firebase-common-20.1.1\AndroidManifest.xml:25:5-38:19
MERGED from [com.google.android.gms:play-services-base:18.0.1] C:\Users\Joni2\.gradle\caches\transforms-3\a8cf32c6afdc7e65150bdcaece7a55c5\transformed\jetified-play-services-base-18.0.1\AndroidManifest.xml:19:5-23:19
MERGED from [com.google.android.gms:play-services-base:18.0.1] C:\Users\Joni2\.gradle\caches\transforms-3\a8cf32c6afdc7e65150bdcaece7a55c5\transformed\jetified-play-services-base-18.0.1\AndroidManifest.xml:19:5-23:19
MERGED from [com.google.android.gms:play-services-tasks:18.0.1] C:\Users\Joni2\.gradle\caches\transforms-3\5034b1d5cf966fe6982e892bf44b600d\transformed\jetified-play-services-tasks-18.0.1\AndroidManifest.xml:5:5-20
MERGED from [com.google.android.gms:play-services-tasks:18.0.1] C:\Users\Joni2\.gradle\caches\transforms-3\5034b1d5cf966fe6982e892bf44b600d\transformed\jetified-play-services-tasks-18.0.1\AndroidManifest.xml:5:5-20
MERGED from [com.google.android.gms:play-services-basement:18.0.0] C:\Users\Joni2\.gradle\caches\transforms-3\998f6cbdc4c44c85ed633c1dc853989c\transformed\jetified-play-services-basement-18.0.0\AndroidManifest.xml:20:5-24:19
MERGED from [com.google.android.gms:play-services-basement:18.0.0] C:\Users\Joni2\.gradle\caches\transforms-3\998f6cbdc4c44c85ed633c1dc853989c\transformed\jetified-play-services-basement-18.0.0\AndroidManifest.xml:20:5-24:19
MERGED from [androidx.emoji2:emoji2:1.0.0] C:\Users\Joni2\.gradle\caches\transforms-3\4b60651704c7d8651ad2c3503bb38c73\transformed\jetified-emoji2-1.0.0\AndroidManifest.xml:25:5-35:19
MERGED from [androidx.emoji2:emoji2:1.0.0] C:\Users\Joni2\.gradle\caches\transforms-3\4b60651704c7d8651ad2c3503bb38c73\transformed\jetified-emoji2-1.0.0\AndroidManifest.xml:25:5-35:19
MERGED from [androidx.window:window:1.0.0] C:\Users\Joni2\.gradle\caches\transforms-3\87c5c438b7756221a2ec6dd9152be528\transformed\jetified-window-1.0.0\AndroidManifest.xml:24:5-31:19
MERGED from [androidx.window:window:1.0.0] C:\Users\Joni2\.gradle\caches\transforms-3\87c5c438b7756221a2ec6dd9152be528\transformed\jetified-window-1.0.0\AndroidManifest.xml:24:5-31:19
MERGED from [androidx.core:core:1.8.0] C:\Users\Joni2\.gradle\caches\transforms-3\fc017b1bfa621db63b3547bb6f031025\transformed\core-1.8.0\AndroidManifest.xml:24:5-89
MERGED from [androidx.core:core:1.8.0] C:\Users\Joni2\.gradle\caches\transforms-3\fc017b1bfa621db63b3547bb6f031025\transformed\core-1.8.0\AndroidManifest.xml:24:5-89
MERGED from [androidx.versionedparcelable:versionedparcelable:1.1.1] C:\Users\Joni2\.gradle\caches\transforms-3\4a2dc31dca41ceabe72d8efa19d292bf\transformed\versionedparcelable-1.1.1\AndroidManifest.xml:24:5-25:19
MERGED from [androidx.versionedparcelable:versionedparcelable:1.1.1] C:\Users\Joni2\.gradle\caches\transforms-3\4a2dc31dca41ceabe72d8efa19d292bf\transformed\versionedparcelable-1.1.1\AndroidManifest.xml:24:5-25:19
MERGED from [androidx.lifecycle:lifecycle-process:2.4.0] C:\Users\Joni2\.gradle\caches\transforms-3\62e87c3cfe17c830dad51da22e55359f\transformed\jetified-lifecycle-process-2.4.0\AndroidManifest.xml:25:5-35:19
MERGED from [androidx.lifecycle:lifecycle-process:2.4.0] C:\Users\Joni2\.gradle\caches\transforms-3\62e87c3cfe17c830dad51da22e55359f\transformed\jetified-lifecycle-process-2.4.0\AndroidManifest.xml:25:5-35:19
MERGED from [androidx.startup:startup-runtime:1.0.0] C:\Users\Joni2\.gradle\caches\transforms-3\6e2cdf1f1e9a31a51efd2c74a8f81718\transformed\jetified-startup-runtime-1.0.0\AndroidManifest.xml:25:5-31:19
MERGED from [androidx.startup:startup-runtime:1.0.0] C:\Users\Joni2\.gradle\caches\transforms-3\6e2cdf1f1e9a31a51efd2c74a8f81718\transformed\jetified-startup-runtime-1.0.0\AndroidManifest.xml:25:5-31:19
	android:appComponentFactory
		ADDED from [androidx.core:core:1.8.0] C:\Users\Joni2\.gradle\caches\transforms-3\fc017b1bfa621db63b3547bb6f031025\transformed\core-1.8.0\AndroidManifest.xml:24:18-86
	android:supportsRtl
		ADDED from C:\Users\Joni2\Jonathan2\Programming\AcademyClash\AcademyClash\app\src\main\AndroidManifest.xml:16:9-35
	android:label
		ADDED from C:\Users\Joni2\Jonathan2\Programming\AcademyClash\AcademyClash\app\src\main\AndroidManifest.xml:14:9-41
	android:roundIcon
		ADDED from C:\Users\Joni2\Jonathan2\Programming\AcademyClash\AcademyClash\app\src\main\AndroidManifest.xml:15:9-57
	android:icon
		ADDED from C:\Users\Joni2\Jonathan2\Programming\AcademyClash\AcademyClash\app\src\main\AndroidManifest.xml:13:9-52
	android:allowBackup
		ADDED from C:\Users\Joni2\Jonathan2\Programming\AcademyClash\AcademyClash\app\src\main\AndroidManifest.xml:12:9-35
	android:theme
		ADDED from C:\Users\Joni2\Jonathan2\Programming\AcademyClash\AcademyClash\app\src\main\AndroidManifest.xml:17:9-50
activity#com.example.academyclash.MainActivity
ADDED from C:\Users\Joni2\Jonathan2\Programming\AcademyClash\AcademyClash\app\src\main\AndroidManifest.xml:18:9-27:20
	android:screenOrientation
		ADDED from C:\Users\Joni2\Jonathan2\Programming\AcademyClash\AcademyClash\app\src\main\AndroidManifest.xml:21:13-49
	android:exported
		ADDED from C:\Users\Joni2\Jonathan2\Programming\AcademyClash\AcademyClash\app\src\main\AndroidManifest.xml:20:13-36
	android:name
		ADDED from C:\Users\Joni2\Jonathan2\Programming\AcademyClash\AcademyClash\app\src\main\AndroidManifest.xml:19:13-41
intent-filter#action:name:android.intent.action.MAIN+category:name:android.intent.category.LAUNCHER
ADDED from C:\Users\Joni2\Jonathan2\Programming\AcademyClash\AcademyClash\app\src\main\AndroidManifest.xml:22:13-26:29
action#android.intent.action.MAIN
ADDED from C:\Users\Joni2\Jonathan2\Programming\AcademyClash\AcademyClash\app\src\main\AndroidManifest.xml:23:17-69
	android:name
		ADDED from C:\Users\Joni2\Jonathan2\Programming\AcademyClash\AcademyClash\app\src\main\AndroidManifest.xml:23:25-66
category#android.intent.category.LAUNCHER
ADDED from C:\Users\Joni2\Jonathan2\Programming\AcademyClash\AcademyClash\app\src\main\AndroidManifest.xml:25:17-77
	android:name
		ADDED from C:\Users\Joni2\Jonathan2\Programming\AcademyClash\AcademyClash\app\src\main\AndroidManifest.xml:25:27-74
receiver#com.example.academyclash.NotificationReceiver
ADDED from C:\Users\Joni2\Jonathan2\Programming\AcademyClash\AcademyClash\app\src\main\AndroidManifest.xml:29:9-57
	android:name
		ADDED from C:\Users\Joni2\Jonathan2\Programming\AcademyClash\AcademyClash\app\src\main\AndroidManifest.xml:29:19-55
uses-sdk
INJECTED from C:\Users\Joni2\Jonathan2\Programming\AcademyClash\AcademyClash\app\src\main\AndroidManifest.xml reason: use-sdk injection requested
INJECTED from C:\Users\Joni2\Jonathan2\Programming\AcademyClash\AcademyClash\app\src\main\AndroidManifest.xml
INJECTED from C:\Users\Joni2\Jonathan2\Programming\AcademyClash\AcademyClash\app\src\main\AndroidManifest.xml
MERGED from [androidx.databinding:viewbinding:7.0.2] C:\Users\Joni2\.gradle\caches\transforms-3\620e574f95cf7e7e93ac68ed08666fcb\transformed\jetified-viewbinding-7.0.2\AndroidManifest.xml:20:5-44
MERGED from [androidx.databinding:viewbinding:7.0.2] C:\Users\Joni2\.gradle\caches\transforms-3\620e574f95cf7e7e93ac68ed08666fcb\transformed\jetified-viewbinding-7.0.2\AndroidManifest.xml:20:5-44
MERGED from [com.github.nitishp:sheetmusicview:v1.2.0] C:\Users\Joni2\.gradle\caches\transforms-3\c271fc349c7d9bb3b55b74e98b0f3fd7\transformed\jetified-sheetmusicview-v1.2.0\AndroidManifest.xml:7:5-9:41
MERGED from [com.github.nitishp:sheetmusicview:v1.2.0] C:\Users\Joni2\.gradle\caches\transforms-3\c271fc349c7d9bb3b55b74e98b0f3fd7\transformed\jetified-sheetmusicview-v1.2.0\AndroidManifest.xml:7:5-9:41
MERGED from [androidx.navigation:navigation-ui:2.4.2] C:\Users\Joni2\.gradle\caches\transforms-3\a16c28026c73d4630c4b4cc159f48884\transformed\navigation-ui-2.4.2\AndroidManifest.xml:20:5-22:41
MERGED from [androidx.navigation:navigation-ui:2.4.2] C:\Users\Joni2\.gradle\caches\transforms-3\a16c28026c73d4630c4b4cc159f48884\transformed\navigation-ui-2.4.2\AndroidManifest.xml:20:5-22:41
MERGED from [com.google.android.material:material:1.7.0-alpha02] C:\Users\Joni2\.gradle\caches\transforms-3\98dc792bc5d378fa8a36daba1d3f6e40\transformed\material-1.7.0-alpha02\AndroidManifest.xml:20:5-22:41
MERGED from [com.google.android.material:material:1.7.0-alpha02] C:\Users\Joni2\.gradle\caches\transforms-3\98dc792bc5d378fa8a36daba1d3f6e40\transformed\material-1.7.0-alpha02\AndroidManifest.xml:20:5-22:41
MERGED from [androidx.constraintlayout:constraintlayout:2.1.4] C:\Users\Joni2\.gradle\caches\transforms-3\457a8183be404b592d4cf92cb8b951e9\transformed\constraintlayout-2.1.4\AndroidManifest.xml:5:5-7:41
MERGED from [androidx.constraintlayout:constraintlayout:2.1.4] C:\Users\Joni2\.gradle\caches\transforms-3\457a8183be404b592d4cf92cb8b951e9\transformed\constraintlayout-2.1.4\AndroidManifest.xml:5:5-7:41
MERGED from [androidx.appcompat:appcompat:1.4.2] C:\Users\Joni2\.gradle\caches\transforms-3\36c4af9368396ac7180ac4f1b31cfd03\transformed\appcompat-1.4.2\AndroidManifest.xml:20:5-22:41
MERGED from [androidx.appcompat:appcompat:1.4.2] C:\Users\Joni2\.gradle\caches\transforms-3\36c4af9368396ac7180ac4f1b31cfd03\transformed\appcompat-1.4.2\AndroidManifest.xml:20:5-22:41
MERGED from [androidx.legacy:legacy-support-v4:1.0.0] C:\Users\Joni2\.gradle\caches\transforms-3\7bc9124ddd25bef25a020b51d9d428ba\transformed\legacy-support-v4-1.0.0\AndroidManifest.xml:20:5-44
MERGED from [androidx.legacy:legacy-support-v4:1.0.0] C:\Users\Joni2\.gradle\caches\transforms-3\7bc9124ddd25bef25a020b51d9d428ba\transformed\legacy-support-v4-1.0.0\AndroidManifest.xml:20:5-44
MERGED from [com.google.firebase:firebase-auth:21.0.6] C:\Users\Joni2\.gradle\caches\transforms-3\6e8d76e76c220353a98f8df1ad5373fb\transformed\jetified-firebase-auth-21.0.6\AndroidManifest.xml:21:5-44
MERGED from [com.google.firebase:firebase-auth:21.0.6] C:\Users\Joni2\.gradle\caches\transforms-3\6e8d76e76c220353a98f8df1ad5373fb\transformed\jetified-firebase-auth-21.0.6\AndroidManifest.xml:21:5-44
MERGED from [androidx.viewpager2:viewpager2:1.0.0] C:\Users\Joni2\.gradle\caches\transforms-3\8fd6eea0562aea14f3bc71e06ead11c9\transformed\jetified-viewpager2-1.0.0\AndroidManifest.xml:20:5-22:41
MERGED from [androidx.viewpager2:viewpager2:1.0.0] C:\Users\Joni2\.gradle\caches\transforms-3\8fd6eea0562aea14f3bc71e06ead11c9\transformed\jetified-viewpager2-1.0.0\AndroidManifest.xml:20:5-22:41
MERGED from [com.google.firebase:firebase-database:20.0.5] C:\Users\Joni2\.gradle\caches\transforms-3\89cebddef84d18773cd1d9151445d59e\transformed\jetified-firebase-database-20.0.5\AndroidManifest.xml:19:5-21:41
MERGED from [com.google.firebase:firebase-database:20.0.5] C:\Users\Joni2\.gradle\caches\transforms-3\89cebddef84d18773cd1d9151445d59e\transformed\jetified-firebase-database-20.0.5\AndroidManifest.xml:19:5-21:41
MERGED from [com.google.android.gms:play-services-auth-api-phone:17.4.0] C:\Users\Joni2\.gradle\caches\transforms-3\d244694a7cf60b68f6360e6d4d149cbd\transformed\jetified-play-services-auth-api-phone-17.4.0\AndroidManifest.xml:5:5-44
MERGED from [com.google.android.gms:play-services-auth-api-phone:17.4.0] C:\Users\Joni2\.gradle\caches\transforms-3\d244694a7cf60b68f6360e6d4d149cbd\transformed\jetified-play-services-auth-api-phone-17.4.0\AndroidManifest.xml:5:5-44
MERGED from [com.google.android.gms:play-services-safetynet:17.0.0] C:\Users\Joni2\.gradle\caches\transforms-3\d39720dfd11c84abbb1765362ab7e280\transformed\jetified-play-services-safetynet-17.0.0\AndroidManifest.xml:20:5-44
MERGED from [com.google.android.gms:play-services-safetynet:17.0.0] C:\Users\Joni2\.gradle\caches\transforms-3\d39720dfd11c84abbb1765362ab7e280\transformed\jetified-play-services-safetynet-17.0.0\AndroidManifest.xml:20:5-44
MERGED from [com.google.firebase:firebase-storage:20.0.1] C:\Users\Joni2\.gradle\caches\transforms-3\a8fd3f7185e0ce510983f625c40e9827\transformed\jetified-firebase-storage-20.0.1\AndroidManifest.xml:20:5-22:41
MERGED from [com.google.firebase:firebase-storage:20.0.1] C:\Users\Joni2\.gradle\caches\transforms-3\a8fd3f7185e0ce510983f625c40e9827\transformed\jetified-firebase-storage-20.0.1\AndroidManifest.xml:20:5-22:41
MERGED from [com.google.firebase:firebase-auth-interop:20.0.0] C:\Users\Joni2\.gradle\caches\transforms-3\cc0c490645cb5c8ef7069804dff9c2ae\transformed\jetified-firebase-auth-interop-20.0.0\AndroidManifest.xml:5:5-44
MERGED from [com.google.firebase:firebase-auth-interop:20.0.0] C:\Users\Joni2\.gradle\caches\transforms-3\cc0c490645cb5c8ef7069804dff9c2ae\transformed\jetified-firebase-auth-interop-20.0.0\AndroidManifest.xml:5:5-44
MERGED from [com.google.firebase:firebase-appcheck-interop:16.0.0] C:\Users\Joni2\.gradle\caches\transforms-3\7f5c83eab9f3d35c2f5c8101ba336bd6\transformed\jetified-firebase-appcheck-interop-16.0.0\AndroidManifest.xml:19:5-21:41
MERGED from [com.google.firebase:firebase-appcheck-interop:16.0.0] C:\Users\Joni2\.gradle\caches\transforms-3\7f5c83eab9f3d35c2f5c8101ba336bd6\transformed\jetified-firebase-appcheck-interop-16.0.0\AndroidManifest.xml:19:5-21:41
MERGED from [com.google.firebase:firebase-common:20.1.1] C:\Users\Joni2\.gradle\caches\transforms-3\496f0496aa2e10d691df166796e850d2\transformed\jetified-firebase-common-20.1.1\AndroidManifest.xml:20:5-22:41
MERGED from [com.google.firebase:firebase-common:20.1.1] C:\Users\Joni2\.gradle\caches\transforms-3\496f0496aa2e10d691df166796e850d2\transformed\jetified-firebase-common-20.1.1\AndroidManifest.xml:20:5-22:41
MERGED from [com.google.firebase:firebase-database-collection:18.0.1] C:\Users\Joni2\.gradle\caches\transforms-3\5b76e9fc004f206d51090162f065c4df\transformed\jetified-firebase-database-collection-18.0.1\AndroidManifest.xml:5:5-7:41
MERGED from [com.google.firebase:firebase-database-collection:18.0.1] C:\Users\Joni2\.gradle\caches\transforms-3\5b76e9fc004f206d51090162f065c4df\transformed\jetified-firebase-database-collection-18.0.1\AndroidManifest.xml:5:5-7:41
MERGED from [com.google.android.gms:play-services-base:18.0.1] C:\Users\Joni2\.gradle\caches\transforms-3\a8cf32c6afdc7e65150bdcaece7a55c5\transformed\jetified-play-services-base-18.0.1\AndroidManifest.xml:18:5-43
MERGED from [com.google.android.gms:play-services-base:18.0.1] C:\Users\Joni2\.gradle\caches\transforms-3\a8cf32c6afdc7e65150bdcaece7a55c5\transformed\jetified-play-services-base-18.0.1\AndroidManifest.xml:18:5-43
MERGED from [com.google.android.gms:play-services-tasks:18.0.1] C:\Users\Joni2\.gradle\caches\transforms-3\5034b1d5cf966fe6982e892bf44b600d\transformed\jetified-play-services-tasks-18.0.1\AndroidManifest.xml:4:5-43
MERGED from [com.google.android.gms:play-services-tasks:18.0.1] C:\Users\Joni2\.gradle\caches\transforms-3\5034b1d5cf966fe6982e892bf44b600d\transformed\jetified-play-services-tasks-18.0.1\AndroidManifest.xml:4:5-43
MERGED from [com.google.android.gms:play-services-basement:18.0.0] C:\Users\Joni2\.gradle\caches\transforms-3\998f6cbdc4c44c85ed633c1dc853989c\transformed\jetified-play-services-basement-18.0.0\AndroidManifest.xml:18:5-43
MERGED from [com.google.android.gms:play-services-basement:18.0.0] C:\Users\Joni2\.gradle\caches\transforms-3\998f6cbdc4c44c85ed633c1dc853989c\transformed\jetified-play-services-basement-18.0.0\AndroidManifest.xml:18:5-43
MERGED from [androidx.navigation:navigation-fragment:2.4.2] C:\Users\Joni2\.gradle\caches\transforms-3\0f23775dd914f436b7841a7b9762dac6\transformed\navigation-fragment-2.4.2\AndroidManifest.xml:20:5-22:41
MERGED from [androidx.navigation:navigation-fragment:2.4.2] C:\Users\Joni2\.gradle\caches\transforms-3\0f23775dd914f436b7841a7b9762dac6\transformed\navigation-fragment-2.4.2\AndroidManifest.xml:20:5-22:41
MERGED from [androidx.fragment:fragment-ktx:1.4.1] C:\Users\Joni2\.gradle\caches\transforms-3\346f3e1b39aa5d7f976771ec7e080e5a\transformed\jetified-fragment-ktx-1.4.1\AndroidManifest.xml:20:5-22:41
MERGED from [androidx.fragment:fragment-ktx:1.4.1] C:\Users\Joni2\.gradle\caches\transforms-3\346f3e1b39aa5d7f976771ec7e080e5a\transformed\jetified-fragment-ktx-1.4.1\AndroidManifest.xml:20:5-22:41
MERGED from [androidx.fragment:fragment:1.4.1] C:\Users\Joni2\.gradle\caches\transforms-3\5b092e600643ed241ca4a5b583eb14f1\transformed\fragment-1.4.1\AndroidManifest.xml:20:5-22:41
MERGED from [androidx.fragment:fragment:1.4.1] C:\Users\Joni2\.gradle\caches\transforms-3\5b092e600643ed241ca4a5b583eb14f1\transformed\fragment-1.4.1\AndroidManifest.xml:20:5-22:41
MERGED from [androidx.navigation:navigation-runtime:2.4.2] C:\Users\Joni2\.gradle\caches\transforms-3\9aaae2e0518801a1f3a97e90ee670f1a\transformed\navigation-runtime-2.4.2\AndroidManifest.xml:20:5-22:41
MERGED from [androidx.navigation:navigation-runtime:2.4.2] C:\Users\Joni2\.gradle\caches\transforms-3\9aaae2e0518801a1f3a97e90ee670f1a\transformed\navigation-runtime-2.4.2\AndroidManifest.xml:20:5-22:41
MERGED from [androidx.activity:activity-ktx:1.2.3] C:\Users\Joni2\.gradle\caches\transforms-3\72ae375a5ba6c51434680e8a007677fa\transformed\jetified-activity-ktx-1.2.3\AndroidManifest.xml:20:5-22:41
MERGED from [androidx.activity:activity-ktx:1.2.3] C:\Users\Joni2\.gradle\caches\transforms-3\72ae375a5ba6c51434680e8a007677fa\transformed\jetified-activity-ktx-1.2.3\AndroidManifest.xml:20:5-22:41
MERGED from [androidx.activity:activity:1.2.4] C:\Users\Joni2\.gradle\caches\transforms-3\d0a79b936e419dd387b875699ee4b62c\transformed\jetified-activity-1.2.4\AndroidManifest.xml:20:5-22:41
MERGED from [androidx.activity:activity:1.2.4] C:\Users\Joni2\.gradle\caches\transforms-3\d0a79b936e419dd387b875699ee4b62c\transformed\jetified-activity-1.2.4\AndroidManifest.xml:20:5-22:41
MERGED from [androidx.appcompat:appcompat-resources:1.4.2] C:\Users\Joni2\.gradle\caches\transforms-3\7dbc8880850da96714784058b883676d\transformed\jetified-appcompat-resources-1.4.2\AndroidManifest.xml:20:5-22:41
MERGED from [androidx.appcompat:appcompat-resources:1.4.2] C:\Users\Joni2\.gradle\caches\transforms-3\7dbc8880850da96714784058b883676d\transformed\jetified-appcompat-resources-1.4.2\AndroidManifest.xml:20:5-22:41
MERGED from [androidx.emoji2:emoji2-views-helper:1.0.0] C:\Users\Joni2\.gradle\caches\transforms-3\d0471ed6f02cec81f1b4078c860ad6ce\transformed\jetified-emoji2-views-helper-1.0.0\AndroidManifest.xml:20:5-22:41
MERGED from [androidx.emoji2:emoji2-views-helper:1.0.0] C:\Users\Joni2\.gradle\caches\transforms-3\d0471ed6f02cec81f1b4078c860ad6ce\transformed\jetified-emoji2-views-helper-1.0.0\AndroidManifest.xml:20:5-22:41
MERGED from [androidx.emoji2:emoji2:1.0.0] C:\Users\Joni2\.gradle\caches\transforms-3\4b60651704c7d8651ad2c3503bb38c73\transformed\jetified-emoji2-1.0.0\AndroidManifest.xml:21:5-23:41
MERGED from [androidx.emoji2:emoji2:1.0.0] C:\Users\Joni2\.gradle\caches\transforms-3\4b60651704c7d8651ad2c3503bb38c73\transformed\jetified-emoji2-1.0.0\AndroidManifest.xml:21:5-23:41
MERGED from [androidx.legacy:legacy-support-core-ui:1.0.0] C:\Users\Joni2\.gradle\caches\transforms-3\6fb69af6583698668532bf0fd35caf8f\transformed\legacy-support-core-ui-1.0.0\AndroidManifest.xml:20:5-44
MERGED from [androidx.legacy:legacy-support-core-ui:1.0.0] C:\Users\Joni2\.gradle\caches\transforms-3\6fb69af6583698668532bf0fd35caf8f\transformed\legacy-support-core-ui-1.0.0\AndroidManifest.xml:20:5-44
MERGED from [androidx.drawerlayout:drawerlayout:1.1.1] C:\Users\Joni2\.gradle\caches\transforms-3\b67812afff6c750eef31b2f5aecf4fb6\transformed\drawerlayout-1.1.1\AndroidManifest.xml:20:5-22:41
MERGED from [androidx.drawerlayout:drawerlayout:1.1.1] C:\Users\Joni2\.gradle\caches\transforms-3\b67812afff6c750eef31b2f5aecf4fb6\transformed\drawerlayout-1.1.1\AndroidManifest.xml:20:5-22:41
MERGED from [androidx.coordinatorlayout:coordinatorlayout:1.1.0] C:\Users\Joni2\.gradle\caches\transforms-3\8eea484709a67dddc1ab9ae1893abd2b\transformed\coordinatorlayout-1.1.0\AndroidManifest.xml:20:5-22:41
MERGED from [androidx.coordinatorlayout:coordinatorlayout:1.1.0] C:\Users\Joni2\.gradle\caches\transforms-3\8eea484709a67dddc1ab9ae1893abd2b\transformed\coordinatorlayout-1.1.0\AndroidManifest.xml:20:5-22:41
MERGED from [androidx.dynamicanimation:dynamicanimation:1.0.0] C:\Users\Joni2\.gradle\caches\transforms-3\8a7b9e471f23c1540e322373ba839543\transformed\dynamicanimation-1.0.0\AndroidManifest.xml:20:5-44
MERGED from [androidx.dynamicanimation:dynamicanimation:1.0.0] C:\Users\Joni2\.gradle\caches\transforms-3\8a7b9e471f23c1540e322373ba839543\transformed\dynamicanimation-1.0.0\AndroidManifest.xml:20:5-44
MERGED from [androidx.vectordrawable:vectordrawable-animated:1.1.0] C:\Users\Joni2\.gradle\caches\transforms-3\781dd23490527cfee6df6b2cc663fc9a\transformed\vectordrawable-animated-1.1.0\AndroidManifest.xml:20:5-22:41
MERGED from [androidx.vectordrawable:vectordrawable-animated:1.1.0] C:\Users\Joni2\.gradle\caches\transforms-3\781dd23490527cfee6df6b2cc663fc9a\transformed\vectordrawable-animated-1.1.0\AndroidManifest.xml:20:5-22:41
MERGED from [androidx.vectordrawable:vectordrawable:1.1.0] C:\Users\Joni2\.gradle\caches\transforms-3\fb357798e0a06fc931bb8f4dac764065\transformed\vectordrawable-1.1.0\AndroidManifest.xml:20:5-22:41
MERGED from [androidx.vectordrawable:vectordrawable:1.1.0] C:\Users\Joni2\.gradle\caches\transforms-3\fb357798e0a06fc931bb8f4dac764065\transformed\vectordrawable-1.1.0\AndroidManifest.xml:20:5-22:41
MERGED from [androidx.browser:browser:1.4.0] C:\Users\Joni2\.gradle\caches\transforms-3\c1a9fc3c5bfad52fc61ea29132ad913f\transformed\browser-1.4.0\AndroidManifest.xml:20:5-22:41
MERGED from [androidx.browser:browser:1.4.0] C:\Users\Joni2\.gradle\caches\transforms-3\c1a9fc3c5bfad52fc61ea29132ad913f\transformed\browser-1.4.0\AndroidManifest.xml:20:5-22:41
MERGED from [androidx.slidingpanelayout:slidingpanelayout:1.2.0] C:\Users\Joni2\.gradle\caches\transforms-3\00ef0cda33b51ca1d1e558bef973a6aa\transformed\slidingpanelayout-1.2.0\AndroidManifest.xml:20:5-22:41
MERGED from [androidx.slidingpanelayout:slidingpanelayout:1.2.0] C:\Users\Joni2\.gradle\caches\transforms-3\00ef0cda33b51ca1d1e558bef973a6aa\transformed\slidingpanelayout-1.2.0\AndroidManifest.xml:20:5-22:41
MERGED from [androidx.viewpager:viewpager:1.0.0] C:\Users\Joni2\.gradle\caches\transforms-3\f0e1dca14b5ed3fe159b41cdf0cbf790\transformed\viewpager-1.0.0\AndroidManifest.xml:20:5-44
MERGED from [androidx.viewpager:viewpager:1.0.0] C:\Users\Joni2\.gradle\caches\transforms-3\f0e1dca14b5ed3fe159b41cdf0cbf790\transformed\viewpager-1.0.0\AndroidManifest.xml:20:5-44
MERGED from [androidx.recyclerview:recyclerview:1.1.0] C:\Users\Joni2\.gradle\caches\transforms-3\52b8a03cfc4c20a0c9c78819018423c4\transformed\recyclerview-1.1.0\AndroidManifest.xml:20:5-22:41
MERGED from [androidx.recyclerview:recyclerview:1.1.0] C:\Users\Joni2\.gradle\caches\transforms-3\52b8a03cfc4c20a0c9c78819018423c4\transformed\recyclerview-1.1.0\AndroidManifest.xml:20:5-22:41
MERGED from [androidx.customview:customview:1.1.0] C:\Users\Joni2\.gradle\caches\transforms-3\dcb62ce1a3c954b541338f55f5bfa38e\transformed\customview-1.1.0\AndroidManifest.xml:20:5-22:41
MERGED from [androidx.customview:customview:1.1.0] C:\Users\Joni2\.gradle\caches\transforms-3\dcb62ce1a3c954b541338f55f5bfa38e\transformed\customview-1.1.0\AndroidManifest.xml:20:5-22:41
MERGED from [androidx.media:media:1.0.0] C:\Users\Joni2\.gradle\caches\transforms-3\bc549059837f713a6813ae954483e241\transformed\media-1.0.0\AndroidManifest.xml:20:5-44
MERGED from [androidx.media:media:1.0.0] C:\Users\Joni2\.gradle\caches\transforms-3\bc549059837f713a6813ae954483e241\transformed\media-1.0.0\AndroidManifest.xml:20:5-44
MERGED from [androidx.legacy:legacy-support-core-utils:1.0.0] C:\Users\Joni2\.gradle\caches\transforms-3\d7d271375ded6eff316edd27ceb0072d\transformed\legacy-support-core-utils-1.0.0\AndroidManifest.xml:20:5-44
MERGED from [androidx.legacy:legacy-support-core-utils:1.0.0] C:\Users\Joni2\.gradle\caches\transforms-3\d7d271375ded6eff316edd27ceb0072d\transformed\legacy-support-core-utils-1.0.0\AndroidManifest.xml:20:5-44
MERGED from [androidx.loader:loader:1.0.0] C:\Users\Joni2\.gradle\caches\transforms-3\21aff1fa3790b705ad8e19b1c47e0d56\transformed\loader-1.0.0\AndroidManifest.xml:20:5-44
MERGED from [androidx.loader:loader:1.0.0] C:\Users\Joni2\.gradle\caches\transforms-3\21aff1fa3790b705ad8e19b1c47e0d56\transformed\loader-1.0.0\AndroidManifest.xml:20:5-44
MERGED from [androidx.navigation:navigation-common:2.4.2] C:\Users\Joni2\.gradle\caches\transforms-3\e3eacd93c50d4147b4d14048e2fb8b55\transformed\navigation-common-2.4.2\AndroidManifest.xml:20:5-22:41
MERGED from [androidx.navigation:navigation-common:2.4.2] C:\Users\Joni2\.gradle\caches\transforms-3\e3eacd93c50d4147b4d14048e2fb8b55\transformed\navigation-common-2.4.2\AndroidManifest.xml:20:5-22:41
MERGED from [androidx.core:core-ktx:1.2.0] C:\Users\Joni2\.gradle\caches\transforms-3\b8215b24ff7af34398018557bffa766d\transformed\jetified-core-ktx-1.2.0\AndroidManifest.xml:5:5-7:41
MERGED from [androidx.core:core-ktx:1.2.0] C:\Users\Joni2\.gradle\caches\transforms-3\b8215b24ff7af34398018557bffa766d\transformed\jetified-core-ktx-1.2.0\AndroidManifest.xml:5:5-7:41
MERGED from [androidx.transition:transition:1.4.1] C:\Users\Joni2\.gradle\caches\transforms-3\e151c3f7a237527cad6daa03e4cf6aee\transformed\transition-1.4.1\AndroidManifest.xml:20:5-22:41
MERGED from [androidx.transition:transition:1.4.1] C:\Users\Joni2\.gradle\caches\transforms-3\e151c3f7a237527cad6daa03e4cf6aee\transformed\transition-1.4.1\AndroidManifest.xml:20:5-22:41
MERGED from [androidx.window:window:1.0.0] C:\Users\Joni2\.gradle\caches\transforms-3\87c5c438b7756221a2ec6dd9152be528\transformed\jetified-window-1.0.0\AndroidManifest.xml:20:5-22:41
MERGED from [androidx.window:window:1.0.0] C:\Users\Joni2\.gradle\caches\transforms-3\87c5c438b7756221a2ec6dd9152be528\transformed\jetified-window-1.0.0\AndroidManifest.xml:20:5-22:41
MERGED from [androidx.swiperefreshlayout:swiperefreshlayout:1.0.0] C:\Users\Joni2\.gradle\caches\transforms-3\634062af7ba6565b6ce63935447f68fe\transformed\swiperefreshlayout-1.0.0\AndroidManifest.xml:20:5-44
MERGED from [androidx.swiperefreshlayout:swiperefreshlayout:1.0.0] C:\Users\Joni2\.gradle\caches\transforms-3\634062af7ba6565b6ce63935447f68fe\transformed\swiperefreshlayout-1.0.0\AndroidManifest.xml:20:5-44
MERGED from [androidx.asynclayoutinflater:asynclayoutinflater:1.0.0] C:\Users\Joni2\.gradle\caches\transforms-3\343c797141be332cf662fb965493c0b7\transformed\asynclayoutinflater-1.0.0\AndroidManifest.xml:20:5-44
MERGED from [androidx.asynclayoutinflater:asynclayoutinflater:1.0.0] C:\Users\Joni2\.gradle\caches\transforms-3\343c797141be332cf662fb965493c0b7\transformed\asynclayoutinflater-1.0.0\AndroidManifest.xml:20:5-44
MERGED from [androidx.core:core:1.8.0] C:\Users\Joni2\.gradle\caches\transforms-3\fc017b1bfa621db63b3547bb6f031025\transformed\core-1.8.0\AndroidManifest.xml:20:5-22:41
MERGED from [androidx.core:core:1.8.0] C:\Users\Joni2\.gradle\caches\transforms-3\fc017b1bfa621db63b3547bb6f031025\transformed\core-1.8.0\AndroidManifest.xml:20:5-22:41
MERGED from [androidx.lifecycle:lifecycle-livedata-ktx:2.4.1] C:\Users\Joni2\.gradle\caches\transforms-3\5119b0c07237f747bec1f0e6fb3f5277\transformed\jetified-lifecycle-livedata-ktx-2.4.1\AndroidManifest.xml:20:5-22:41
MERGED from [androidx.lifecycle:lifecycle-livedata-ktx:2.4.1] C:\Users\Joni2\.gradle\caches\transforms-3\5119b0c07237f747bec1f0e6fb3f5277\transformed\jetified-lifecycle-livedata-ktx-2.4.1\AndroidManifest.xml:20:5-22:41
MERGED from [androidx.lifecycle:lifecycle-viewmodel-ktx:2.4.1] C:\Users\Joni2\.gradle\caches\transforms-3\5d83b8f2dc5bc7f953acae22d99b5c15\transformed\jetified-lifecycle-viewmodel-ktx-2.4.1\AndroidManifest.xml:20:5-22:41
MERGED from [androidx.lifecycle:lifecycle-viewmodel-ktx:2.4.1] C:\Users\Joni2\.gradle\caches\transforms-3\5d83b8f2dc5bc7f953acae22d99b5c15\transformed\jetified-lifecycle-viewmodel-ktx-2.4.1\AndroidManifest.xml:20:5-22:41
MERGED from [androidx.versionedparcelable:versionedparcelable:1.1.1] C:\Users\Joni2\.gradle\caches\transforms-3\4a2dc31dca41ceabe72d8efa19d292bf\transformed\versionedparcelable-1.1.1\AndroidManifest.xml:20:5-22:41
MERGED from [androidx.versionedparcelable:versionedparcelable:1.1.1] C:\Users\Joni2\.gradle\caches\transforms-3\4a2dc31dca41ceabe72d8efa19d292bf\transformed\versionedparcelable-1.1.1\AndroidManifest.xml:20:5-22:41
MERGED from [androidx.cursoradapter:cursoradapter:1.0.0] C:\Users\Joni2\.gradle\caches\transforms-3\3727d41d965d68ffe5020a108ad2f770\transformed\cursoradapter-1.0.0\AndroidManifest.xml:20:5-44
MERGED from [androidx.cursoradapter:cursoradapter:1.0.0] C:\Users\Joni2\.gradle\caches\transforms-3\3727d41d965d68ffe5020a108ad2f770\transformed\cursoradapter-1.0.0\AndroidManifest.xml:20:5-44
MERGED from [androidx.lifecycle:lifecycle-viewmodel-savedstate:2.3.1] C:\Users\Joni2\.gradle\caches\transforms-3\60c29e3303dcf5243bee8bf4b7c5e277\transformed\jetified-lifecycle-viewmodel-savedstate-2.3.1\AndroidManifest.xml:20:5-22:41
MERGED from [androidx.lifecycle:lifecycle-viewmodel-savedstate:2.3.1] C:\Users\Joni2\.gradle\caches\transforms-3\60c29e3303dcf5243bee8bf4b7c5e277\transformed\jetified-lifecycle-viewmodel-savedstate-2.3.1\AndroidManifest.xml:20:5-22:41
MERGED from [androidx.savedstate:savedstate-ktx:1.1.0] C:\Users\Joni2\.gradle\caches\transforms-3\2e3f0f0d40df1156effe9554d9ea7e47\transformed\jetified-savedstate-ktx-1.1.0\AndroidManifest.xml:20:5-22:41
MERGED from [androidx.savedstate:savedstate-ktx:1.1.0] C:\Users\Joni2\.gradle\caches\transforms-3\2e3f0f0d40df1156effe9554d9ea7e47\transformed\jetified-savedstate-ktx-1.1.0\AndroidManifest.xml:20:5-22:41
MERGED from [androidx.savedstate:savedstate:1.1.0] C:\Users\Joni2\.gradle\caches\transforms-3\fbb142ee1815151d8084e34648d018ac\transformed\jetified-savedstate-1.1.0\AndroidManifest.xml:20:5-22:41
MERGED from [androidx.savedstate:savedstate:1.1.0] C:\Users\Joni2\.gradle\caches\transforms-3\fbb142ee1815151d8084e34648d018ac\transformed\jetified-savedstate-1.1.0\AndroidManifest.xml:20:5-22:41
MERGED from [androidx.cardview:cardview:1.0.0] C:\Users\Joni2\.gradle\caches\transforms-3\b5a1dde354f7afc013622ec6eac7dc84\transformed\cardview-1.0.0\AndroidManifest.xml:20:5-44
MERGED from [androidx.cardview:cardview:1.0.0] C:\Users\Joni2\.gradle\caches\transforms-3\b5a1dde354f7afc013622ec6eac7dc84\transformed\cardview-1.0.0\AndroidManifest.xml:20:5-44
MERGED from [androidx.localbroadcastmanager:localbroadcastmanager:1.0.0] C:\Users\Joni2\.gradle\caches\transforms-3\8d4069d8883cd35818f5c173a3837002\transformed\localbroadcastmanager-1.0.0\AndroidManifest.xml:20:5-44
MERGED from [androidx.localbroadcastmanager:localbroadcastmanager:1.0.0] C:\Users\Joni2\.gradle\caches\transforms-3\8d4069d8883cd35818f5c173a3837002\transformed\localbroadcastmanager-1.0.0\AndroidManifest.xml:20:5-44
MERGED from [com.google.firebase:firebase-components:17.0.0] C:\Users\Joni2\.gradle\caches\transforms-3\82f0742619c93bff749e298ff0daa035\transformed\jetified-firebase-components-17.0.0\AndroidManifest.xml:19:5-21:41
MERGED from [com.google.firebase:firebase-components:17.0.0] C:\Users\Joni2\.gradle\caches\transforms-3\82f0742619c93bff749e298ff0daa035\transformed\jetified-firebase-components-17.0.0\AndroidManifest.xml:19:5-21:41
MERGED from [androidx.lifecycle:lifecycle-viewmodel:2.4.1] C:\Users\Joni2\.gradle\caches\transforms-3\75eaaf2d142f08e75cfdf34b115b044e\transformed\lifecycle-viewmodel-2.4.1\AndroidManifest.xml:20:5-22:41
MERGED from [androidx.lifecycle:lifecycle-viewmodel:2.4.1] C:\Users\Joni2\.gradle\caches\transforms-3\75eaaf2d142f08e75cfdf34b115b044e\transformed\lifecycle-viewmodel-2.4.1\AndroidManifest.xml:20:5-22:41
MERGED from [androidx.lifecycle:lifecycle-livedata:2.4.1] C:\Users\Joni2\.gradle\caches\transforms-3\96536084a99b4fc80012186b5062769c\transformed\lifecycle-livedata-2.4.1\AndroidManifest.xml:20:5-22:41
MERGED from [androidx.lifecycle:lifecycle-livedata:2.4.1] C:\Users\Joni2\.gradle\caches\transforms-3\96536084a99b4fc80012186b5062769c\transformed\lifecycle-livedata-2.4.1\AndroidManifest.xml:20:5-22:41
MERGED from [androidx.lifecycle:lifecycle-livedata-core-ktx:2.4.1] C:\Users\Joni2\.gradle\caches\transforms-3\f6cea9d5f2016db59db30551ad641019\transformed\jetified-lifecycle-livedata-core-ktx-2.4.1\AndroidManifest.xml:20:5-22:41
MERGED from [androidx.lifecycle:lifecycle-livedata-core-ktx:2.4.1] C:\Users\Joni2\.gradle\caches\transforms-3\f6cea9d5f2016db59db30551ad641019\transformed\jetified-lifecycle-livedata-core-ktx-2.4.1\AndroidManifest.xml:20:5-22:41
MERGED from [androidx.lifecycle:lifecycle-livedata-core:2.4.1] C:\Users\Joni2\.gradle\caches\transforms-3\f2c9802ffe172297880d6a2484f31a37\transformed\lifecycle-livedata-core-2.4.1\AndroidManifest.xml:20:5-22:41
MERGED from [androidx.lifecycle:lifecycle-livedata-core:2.4.1] C:\Users\Joni2\.gradle\caches\transforms-3\f2c9802ffe172297880d6a2484f31a37\transformed\lifecycle-livedata-core-2.4.1\AndroidManifest.xml:20:5-22:41
MERGED from [androidx.lifecycle:lifecycle-process:2.4.0] C:\Users\Joni2\.gradle\caches\transforms-3\62e87c3cfe17c830dad51da22e55359f\transformed\jetified-lifecycle-process-2.4.0\AndroidManifest.xml:21:5-23:41
MERGED from [androidx.lifecycle:lifecycle-process:2.4.0] C:\Users\Joni2\.gradle\caches\transforms-3\62e87c3cfe17c830dad51da22e55359f\transformed\jetified-lifecycle-process-2.4.0\AndroidManifest.xml:21:5-23:41
MERGED from [androidx.lifecycle:lifecycle-runtime-ktx:2.3.1] C:\Users\Joni2\.gradle\caches\transforms-3\c55488c14f6fd659811cb5fda026a110\transformed\jetified-lifecycle-runtime-ktx-2.3.1\AndroidManifest.xml:20:5-22:41
MERGED from [androidx.lifecycle:lifecycle-runtime-ktx:2.3.1] C:\Users\Joni2\.gradle\caches\transforms-3\c55488c14f6fd659811cb5fda026a110\transformed\jetified-lifecycle-runtime-ktx-2.3.1\AndroidManifest.xml:20:5-22:41
MERGED from [androidx.lifecycle:lifecycle-runtime:2.4.0] C:\Users\Joni2\.gradle\caches\transforms-3\11012e34cfa220e9f58a7d557643f386\transformed\lifecycle-runtime-2.4.0\AndroidManifest.xml:20:5-22:41
MERGED from [androidx.lifecycle:lifecycle-runtime:2.4.0] C:\Users\Joni2\.gradle\caches\transforms-3\11012e34cfa220e9f58a7d557643f386\transformed\lifecycle-runtime-2.4.0\AndroidManifest.xml:20:5-22:41
MERGED from [androidx.arch.core:core-runtime:2.1.0] C:\Users\Joni2\.gradle\caches\transforms-3\9692f4eff85761d20785aa5053f9ebcb\transformed\core-runtime-2.1.0\AndroidManifest.xml:20:5-22:41
MERGED from [androidx.arch.core:core-runtime:2.1.0] C:\Users\Joni2\.gradle\caches\transforms-3\9692f4eff85761d20785aa5053f9ebcb\transformed\core-runtime-2.1.0\AndroidManifest.xml:20:5-22:41
MERGED from [androidx.startup:startup-runtime:1.0.0] C:\Users\Joni2\.gradle\caches\transforms-3\6e2cdf1f1e9a31a51efd2c74a8f81718\transformed\jetified-startup-runtime-1.0.0\AndroidManifest.xml:21:5-23:41
MERGED from [androidx.startup:startup-runtime:1.0.0] C:\Users\Joni2\.gradle\caches\transforms-3\6e2cdf1f1e9a31a51efd2c74a8f81718\transformed\jetified-startup-runtime-1.0.0\AndroidManifest.xml:21:5-23:41
MERGED from [androidx.tracing:tracing:1.0.0] C:\Users\Joni2\.gradle\caches\transforms-3\59b41095d2f1061113aab46acc35c68a\transformed\jetified-tracing-1.0.0\AndroidManifest.xml:20:5-22:41
MERGED from [androidx.tracing:tracing:1.0.0] C:\Users\Joni2\.gradle\caches\transforms-3\59b41095d2f1061113aab46acc35c68a\transformed\jetified-tracing-1.0.0\AndroidManifest.xml:20:5-22:41
MERGED from [androidx.interpolator:interpolator:1.0.0] C:\Users\Joni2\.gradle\caches\transforms-3\d3f87aa4861bbafadab8253cbbec58bc\transformed\interpolator-1.0.0\AndroidManifest.xml:20:5-44
MERGED from [androidx.interpolator:interpolator:1.0.0] C:\Users\Joni2\.gradle\caches\transforms-3\d3f87aa4861bbafadab8253cbbec58bc\transformed\interpolator-1.0.0\AndroidManifest.xml:20:5-44
MERGED from [androidx.documentfile:documentfile:1.0.0] C:\Users\Joni2\.gradle\caches\transforms-3\783b035d32ce5be15ab468001bd7362a\transformed\documentfile-1.0.0\AndroidManifest.xml:20:5-44
MERGED from [androidx.documentfile:documentfile:1.0.0] C:\Users\Joni2\.gradle\caches\transforms-3\783b035d32ce5be15ab468001bd7362a\transformed\documentfile-1.0.0\AndroidManifest.xml:20:5-44
MERGED from [androidx.print:print:1.0.0] C:\Users\Joni2\.gradle\caches\transforms-3\84046498be48793439a4476136a93af1\transformed\print-1.0.0\AndroidManifest.xml:20:5-44
MERGED from [androidx.print:print:1.0.0] C:\Users\Joni2\.gradle\caches\transforms-3\84046498be48793439a4476136a93af1\transformed\print-1.0.0\AndroidManifest.xml:20:5-44
MERGED from [androidx.annotation:annotation-experimental:1.1.0] C:\Users\Joni2\.gradle\caches\transforms-3\737d9ff2c32889bb2521aaf2bc07e3c5\transformed\jetified-annotation-experimental-1.1.0\AndroidManifest.xml:20:5-22:41
MERGED from [androidx.annotation:annotation-experimental:1.1.0] C:\Users\Joni2\.gradle\caches\transforms-3\737d9ff2c32889bb2521aaf2bc07e3c5\transformed\jetified-annotation-experimental-1.1.0\AndroidManifest.xml:20:5-22:41
INJECTED from C:\Users\Joni2\Jonathan2\Programming\AcademyClash\AcademyClash\app\src\main\AndroidManifest.xml
INJECTED from C:\Users\Joni2\Jonathan2\Programming\AcademyClash\AcademyClash\app\src\main\AndroidManifest.xml
	android:targetSdkVersion
		INJECTED from C:\Users\Joni2\Jonathan2\Programming\AcademyClash\AcademyClash\app\src\main\AndroidManifest.xml
		ADDED from C:\Users\Joni2\Jonathan2\Programming\AcademyClash\AcademyClash\app\src\main\AndroidManifest.xml
		INJECTED from C:\Users\Joni2\Jonathan2\Programming\AcademyClash\AcademyClash\app\src\main\AndroidManifest.xml
	android:minSdkVersion
		INJECTED from C:\Users\Joni2\Jonathan2\Programming\AcademyClash\AcademyClash\app\src\main\AndroidManifest.xml
		ADDED from C:\Users\Joni2\Jonathan2\Programming\AcademyClash\AcademyClash\app\src\main\AndroidManifest.xml
		INJECTED from C:\Users\Joni2\Jonathan2\Programming\AcademyClash\AcademyClash\app\src\main\AndroidManifest.xml
uses-permission#android.permission.ACCESS_NETWORK_STATE
ADDED from [com.google.firebase:firebase-auth:21.0.6] C:\Users\Joni2\.gradle\caches\transforms-3\6e8d76e76c220353a98f8df1ad5373fb\transformed\jetified-firebase-auth-21.0.6\AndroidManifest.xml:24:5-79
MERGED from [com.google.firebase:firebase-database:20.0.5] C:\Users\Joni2\.gradle\caches\transforms-3\89cebddef84d18773cd1d9151445d59e\transformed\jetified-firebase-database-20.0.5\AndroidManifest.xml:25:5-79
MERGED from [com.google.firebase:firebase-database:20.0.5] C:\Users\Joni2\.gradle\caches\transforms-3\89cebddef84d18773cd1d9151445d59e\transformed\jetified-firebase-database-20.0.5\AndroidManifest.xml:25:5-79
MERGED from [com.google.firebase:firebase-storage:20.0.1] C:\Users\Joni2\.gradle\caches\transforms-3\a8fd3f7185e0ce510983f625c40e9827\transformed\jetified-firebase-storage-20.0.1\AndroidManifest.xml:26:5-79
MERGED from [com.google.firebase:firebase-storage:20.0.1] C:\Users\Joni2\.gradle\caches\transforms-3\a8fd3f7185e0ce510983f625c40e9827\transformed\jetified-firebase-storage-20.0.1\AndroidManifest.xml:26:5-79
	android:name
		ADDED from [com.google.firebase:firebase-auth:21.0.6] C:\Users\Joni2\.gradle\caches\transforms-3\6e8d76e76c220353a98f8df1ad5373fb\transformed\jetified-firebase-auth-21.0.6\AndroidManifest.xml:24:22-76
activity#com.google.firebase.auth.internal.GenericIdpActivity
ADDED from [com.google.firebase:firebase-auth:21.0.6] C:\Users\Joni2\.gradle\caches\transforms-3\6e8d76e76c220353a98f8df1ad5373fb\transformed\jetified-firebase-auth-21.0.6\AndroidManifest.xml:27:9-44:20
	android:excludeFromRecents
		ADDED from [com.google.firebase:firebase-auth:21.0.6] C:\Users\Joni2\.gradle\caches\transforms-3\6e8d76e76c220353a98f8df1ad5373fb\transformed\jetified-firebase-auth-21.0.6\AndroidManifest.xml:29:13-46
	android:launchMode
		ADDED from [com.google.firebase:firebase-auth:21.0.6] C:\Users\Joni2\.gradle\caches\transforms-3\6e8d76e76c220353a98f8df1ad5373fb\transformed\jetified-firebase-auth-21.0.6\AndroidManifest.xml:31:13-44
	android:exported
		ADDED from [com.google.firebase:firebase-auth:21.0.6] C:\Users\Joni2\.gradle\caches\transforms-3\6e8d76e76c220353a98f8df1ad5373fb\transformed\jetified-firebase-auth-21.0.6\AndroidManifest.xml:30:13-36
	android:theme
		ADDED from [com.google.firebase:firebase-auth:21.0.6] C:\Users\Joni2\.gradle\caches\transforms-3\6e8d76e76c220353a98f8df1ad5373fb\transformed\jetified-firebase-auth-21.0.6\AndroidManifest.xml:32:13-72
	android:name
		ADDED from [com.google.firebase:firebase-auth:21.0.6] C:\Users\Joni2\.gradle\caches\transforms-3\6e8d76e76c220353a98f8df1ad5373fb\transformed\jetified-firebase-auth-21.0.6\AndroidManifest.xml:28:13-80
intent-filter#action:name:android.intent.action.VIEW+category:name:android.intent.category.BROWSABLE+category:name:android.intent.category.DEFAULT+data:host:firebase.auth+data:path:/+data:scheme:genericidp
ADDED from [com.google.firebase:firebase-auth:21.0.6] C:\Users\Joni2\.gradle\caches\transforms-3\6e8d76e76c220353a98f8df1ad5373fb\transformed\jetified-firebase-auth-21.0.6\AndroidManifest.xml:33:13-43:29
action#android.intent.action.VIEW
ADDED from [com.google.firebase:firebase-auth:21.0.6] C:\Users\Joni2\.gradle\caches\transforms-3\6e8d76e76c220353a98f8df1ad5373fb\transformed\jetified-firebase-auth-21.0.6\AndroidManifest.xml:34:17-69
	android:name
		ADDED from [com.google.firebase:firebase-auth:21.0.6] C:\Users\Joni2\.gradle\caches\transforms-3\6e8d76e76c220353a98f8df1ad5373fb\transformed\jetified-firebase-auth-21.0.6\AndroidManifest.xml:34:25-66
category#android.intent.category.DEFAULT
ADDED from [com.google.firebase:firebase-auth:21.0.6] C:\Users\Joni2\.gradle\caches\transforms-3\6e8d76e76c220353a98f8df1ad5373fb\transformed\jetified-firebase-auth-21.0.6\AndroidManifest.xml:36:17-76
	android:name
		ADDED from [com.google.firebase:firebase-auth:21.0.6] C:\Users\Joni2\.gradle\caches\transforms-3\6e8d76e76c220353a98f8df1ad5373fb\transformed\jetified-firebase-auth-21.0.6\AndroidManifest.xml:36:27-73
category#android.intent.category.BROWSABLE
ADDED from [com.google.firebase:firebase-auth:21.0.6] C:\Users\Joni2\.gradle\caches\transforms-3\6e8d76e76c220353a98f8df1ad5373fb\transformed\jetified-firebase-auth-21.0.6\AndroidManifest.xml:37:17-78
	android:name
		ADDED from [com.google.firebase:firebase-auth:21.0.6] C:\Users\Joni2\.gradle\caches\transforms-3\6e8d76e76c220353a98f8df1ad5373fb\transformed\jetified-firebase-auth-21.0.6\AndroidManifest.xml:37:27-75
data
ADDED from [com.google.firebase:firebase-auth:21.0.6] C:\Users\Joni2\.gradle\caches\transforms-3\6e8d76e76c220353a98f8df1ad5373fb\transformed\jetified-firebase-auth-21.0.6\AndroidManifest.xml:39:17-42:51
	android:path
		ADDED from [com.google.firebase:firebase-auth:21.0.6] C:\Users\Joni2\.gradle\caches\transforms-3\6e8d76e76c220353a98f8df1ad5373fb\transformed\jetified-firebase-auth-21.0.6\AndroidManifest.xml:41:21-37
	android:host
		ADDED from [com.google.firebase:firebase-auth:21.0.6] C:\Users\Joni2\.gradle\caches\transforms-3\6e8d76e76c220353a98f8df1ad5373fb\transformed\jetified-firebase-auth-21.0.6\AndroidManifest.xml:40:21-49
	android:scheme
		ADDED from [com.google.firebase:firebase-auth:21.0.6] C:\Users\Joni2\.gradle\caches\transforms-3\6e8d76e76c220353a98f8df1ad5373fb\transformed\jetified-firebase-auth-21.0.6\AndroidManifest.xml:42:21-48
activity#com.google.firebase.auth.internal.RecaptchaActivity
ADDED from [com.google.firebase:firebase-auth:21.0.6] C:\Users\Joni2\.gradle\caches\transforms-3\6e8d76e76c220353a98f8df1ad5373fb\transformed\jetified-firebase-auth-21.0.6\AndroidManifest.xml:45:9-62:20
	android:excludeFromRecents
		ADDED from [com.google.firebase:firebase-auth:21.0.6] C:\Users\Joni2\.gradle\caches\transforms-3\6e8d76e76c220353a98f8df1ad5373fb\transformed\jetified-firebase-auth-21.0.6\AndroidManifest.xml:47:13-46
	android:launchMode
		ADDED from [com.google.firebase:firebase-auth:21.0.6] C:\Users\Joni2\.gradle\caches\transforms-3\6e8d76e76c220353a98f8df1ad5373fb\transformed\jetified-firebase-auth-21.0.6\AndroidManifest.xml:49:13-44
	android:exported
		ADDED from [com.google.firebase:firebase-auth:21.0.6] C:\Users\Joni2\.gradle\caches\transforms-3\6e8d76e76c220353a98f8df1ad5373fb\transformed\jetified-firebase-auth-21.0.6\AndroidManifest.xml:48:13-36
	android:theme
		ADDED from [com.google.firebase:firebase-auth:21.0.6] C:\Users\Joni2\.gradle\caches\transforms-3\6e8d76e76c220353a98f8df1ad5373fb\transformed\jetified-firebase-auth-21.0.6\AndroidManifest.xml:50:13-72
	android:name
		ADDED from [com.google.firebase:firebase-auth:21.0.6] C:\Users\Joni2\.gradle\caches\transforms-3\6e8d76e76c220353a98f8df1ad5373fb\transformed\jetified-firebase-auth-21.0.6\AndroidManifest.xml:46:13-79
intent-filter#action:name:android.intent.action.VIEW+category:name:android.intent.category.BROWSABLE+category:name:android.intent.category.DEFAULT+data:host:firebase.auth+data:path:/+data:scheme:recaptcha
ADDED from [com.google.firebase:firebase-auth:21.0.6] C:\Users\Joni2\.gradle\caches\transforms-3\6e8d76e76c220353a98f8df1ad5373fb\transformed\jetified-firebase-auth-21.0.6\AndroidManifest.xml:51:13-61:29
service#com.google.firebase.components.ComponentDiscoveryService
ADDED from [com.google.firebase:firebase-auth:21.0.6] C:\Users\Joni2\.gradle\caches\transforms-3\6e8d76e76c220353a98f8df1ad5373fb\transformed\jetified-firebase-auth-21.0.6\AndroidManifest.xml:64:9-70:19
MERGED from [com.google.firebase:firebase-database:20.0.5] C:\Users\Joni2\.gradle\caches\transforms-3\89cebddef84d18773cd1d9151445d59e\transformed\jetified-firebase-database-20.0.5\AndroidManifest.xml:29:9-35:19
MERGED from [com.google.firebase:firebase-database:20.0.5] C:\Users\Joni2\.gradle\caches\transforms-3\89cebddef84d18773cd1d9151445d59e\transformed\jetified-firebase-database-20.0.5\AndroidManifest.xml:29:9-35:19
MERGED from [com.google.firebase:firebase-storage:20.0.1] C:\Users\Joni2\.gradle\caches\transforms-3\a8fd3f7185e0ce510983f625c40e9827\transformed\jetified-firebase-storage-20.0.1\AndroidManifest.xml:30:9-36:19
MERGED from [com.google.firebase:firebase-storage:20.0.1] C:\Users\Joni2\.gradle\caches\transforms-3\a8fd3f7185e0ce510983f625c40e9827\transformed\jetified-firebase-storage-20.0.1\AndroidManifest.xml:30:9-36:19
MERGED from [com.google.firebase:firebase-common:20.1.1] C:\Users\Joni2\.gradle\caches\transforms-3\496f0496aa2e10d691df166796e850d2\transformed\jetified-firebase-common-20.1.1\AndroidManifest.xml:33:9-37:35
MERGED from [com.google.firebase:firebase-common:20.1.1] C:\Users\Joni2\.gradle\caches\transforms-3\496f0496aa2e10d691df166796e850d2\transformed\jetified-firebase-common-20.1.1\AndroidManifest.xml:33:9-37:35
	android:exported
		ADDED from [com.google.firebase:firebase-auth:21.0.6] C:\Users\Joni2\.gradle\caches\transforms-3\6e8d76e76c220353a98f8df1ad5373fb\transformed\jetified-firebase-auth-21.0.6\AndroidManifest.xml:66:13-37
	tools:targetApi
		ADDED from [com.google.firebase:firebase-common:20.1.1] C:\Users\Joni2\.gradle\caches\transforms-3\496f0496aa2e10d691df166796e850d2\transformed\jetified-firebase-common-20.1.1\AndroidManifest.xml:37:13-32
	android:directBootAware
		ADDED from [com.google.firebase:firebase-common:20.1.1] C:\Users\Joni2\.gradle\caches\transforms-3\496f0496aa2e10d691df166796e850d2\transformed\jetified-firebase-common-20.1.1\AndroidManifest.xml:35:13-43
	android:name
		ADDED from [com.google.firebase:firebase-auth:21.0.6] C:\Users\Joni2\.gradle\caches\transforms-3\6e8d76e76c220353a98f8df1ad5373fb\transformed\jetified-firebase-auth-21.0.6\AndroidManifest.xml:65:13-84
meta-data#com.google.firebase.components:com.google.firebase.auth.FirebaseAuthRegistrar
ADDED from [com.google.firebase:firebase-auth:21.0.6] C:\Users\Joni2\.gradle\caches\transforms-3\6e8d76e76c220353a98f8df1ad5373fb\transformed\jetified-firebase-auth-21.0.6\AndroidManifest.xml:67:13-69:85
	android:value
		ADDED from [com.google.firebase:firebase-auth:21.0.6] C:\Users\Joni2\.gradle\caches\transforms-3\6e8d76e76c220353a98f8df1ad5373fb\transformed\jetified-firebase-auth-21.0.6\AndroidManifest.xml:69:17-82
	android:name
		ADDED from [com.google.firebase:firebase-auth:21.0.6] C:\Users\Joni2\.gradle\caches\transforms-3\6e8d76e76c220353a98f8df1ad5373fb\transformed\jetified-firebase-auth-21.0.6\AndroidManifest.xml:68:17-109
meta-data#com.google.firebase.components:com.google.firebase.database.DatabaseRegistrar
ADDED from [com.google.firebase:firebase-database:20.0.5] C:\Users\Joni2\.gradle\caches\transforms-3\89cebddef84d18773cd1d9151445d59e\transformed\jetified-firebase-database-20.0.5\AndroidManifest.xml:32:13-34:85
	android:value
		ADDED from [com.google.firebase:firebase-database:20.0.5] C:\Users\Joni2\.gradle\caches\transforms-3\89cebddef84d18773cd1d9151445d59e\transformed\jetified-firebase-database-20.0.5\AndroidManifest.xml:34:17-82
	android:name
		ADDED from [com.google.firebase:firebase-database:20.0.5] C:\Users\Joni2\.gradle\caches\transforms-3\89cebddef84d18773cd1d9151445d59e\transformed\jetified-firebase-database-20.0.5\AndroidManifest.xml:33:17-109
meta-data#com.google.firebase.components:com.google.firebase.storage.StorageRegistrar
ADDED from [com.google.firebase:firebase-storage:20.0.1] C:\Users\Joni2\.gradle\caches\transforms-3\a8fd3f7185e0ce510983f625c40e9827\transformed\jetified-firebase-storage-20.0.1\AndroidManifest.xml:33:13-35:85
	android:value
		ADDED from [com.google.firebase:firebase-storage:20.0.1] C:\Users\Joni2\.gradle\caches\transforms-3\a8fd3f7185e0ce510983f625c40e9827\transformed\jetified-firebase-storage-20.0.1\AndroidManifest.xml:35:17-82
	android:name
		ADDED from [com.google.firebase:firebase-storage:20.0.1] C:\Users\Joni2\.gradle\caches\transforms-3\a8fd3f7185e0ce510983f625c40e9827\transformed\jetified-firebase-storage-20.0.1\AndroidManifest.xml:34:17-107
provider#com.google.firebase.provider.FirebaseInitProvider
ADDED from [com.google.firebase:firebase-common:20.1.1] C:\Users\Joni2\.gradle\caches\transforms-3\496f0496aa2e10d691df166796e850d2\transformed\jetified-firebase-common-20.1.1\AndroidManifest.xml:26:9-31:39
	android:authorities
		ADDED from [com.google.firebase:firebase-common:20.1.1] C:\Users\Joni2\.gradle\caches\transforms-3\496f0496aa2e10d691df166796e850d2\transformed\jetified-firebase-common-20.1.1\AndroidManifest.xml:28:13-72
	android:exported
		ADDED from [com.google.firebase:firebase-common:20.1.1] C:\Users\Joni2\.gradle\caches\transforms-3\496f0496aa2e10d691df166796e850d2\transformed\jetified-firebase-common-20.1.1\AndroidManifest.xml:30:13-37
	android:directBootAware
		ADDED from [com.google.firebase:firebase-common:20.1.1] C:\Users\Joni2\.gradle\caches\transforms-3\496f0496aa2e10d691df166796e850d2\transformed\jetified-firebase-common-20.1.1\AndroidManifest.xml:29:13-43
	android:initOrder
		ADDED from [com.google.firebase:firebase-common:20.1.1] C:\Users\Joni2\.gradle\caches\transforms-3\496f0496aa2e10d691df166796e850d2\transformed\jetified-firebase-common-20.1.1\AndroidManifest.xml:31:13-36
	android:name
		ADDED from [com.google.firebase:firebase-common:20.1.1] C:\Users\Joni2\.gradle\caches\transforms-3\496f0496aa2e10d691df166796e850d2\transformed\jetified-firebase-common-20.1.1\AndroidManifest.xml:27:13-77
activity#com.google.android.gms.common.api.GoogleApiActivity
ADDED from [com.google.android.gms:play-services-base:18.0.1] C:\Users\Joni2\.gradle\caches\transforms-3\a8cf32c6afdc7e65150bdcaece7a55c5\transformed\jetified-play-services-base-18.0.1\AndroidManifest.xml:20:9-22:45
	android:exported
		ADDED from [com.google.android.gms:play-services-base:18.0.1] C:\Users\Joni2\.gradle\caches\transforms-3\a8cf32c6afdc7e65150bdcaece7a55c5\transformed\jetified-play-services-base-18.0.1\AndroidManifest.xml:22:19-43
	android:theme
		ADDED from [com.google.android.gms:play-services-base:18.0.1] C:\Users\Joni2\.gradle\caches\transforms-3\a8cf32c6afdc7e65150bdcaece7a55c5\transformed\jetified-play-services-base-18.0.1\AndroidManifest.xml:21:19-78
	android:name
		ADDED from [com.google.android.gms:play-services-base:18.0.1] C:\Users\Joni2\.gradle\caches\transforms-3\a8cf32c6afdc7e65150bdcaece7a55c5\transformed\jetified-play-services-base-18.0.1\AndroidManifest.xml:20:19-85
meta-data#com.google.android.gms.version
ADDED from [com.google.android.gms:play-services-basement:18.0.0] C:\Users\Joni2\.gradle\caches\transforms-3\998f6cbdc4c44c85ed633c1dc853989c\transformed\jetified-play-services-basement-18.0.0\AndroidManifest.xml:21:9-23:69
	android:value
		ADDED from [com.google.android.gms:play-services-basement:18.0.0] C:\Users\Joni2\.gradle\caches\transforms-3\998f6cbdc4c44c85ed633c1dc853989c\transformed\jetified-play-services-basement-18.0.0\AndroidManifest.xml:23:13-66
	android:name
		ADDED from [com.google.android.gms:play-services-basement:18.0.0] C:\Users\Joni2\.gradle\caches\transforms-3\998f6cbdc4c44c85ed633c1dc853989c\transformed\jetified-play-services-basement-18.0.0\AndroidManifest.xml:22:13-58
provider#androidx.startup.InitializationProvider
ADDED from [androidx.emoji2:emoji2:1.0.0] C:\Users\Joni2\.gradle\caches\transforms-3\4b60651704c7d8651ad2c3503bb38c73\transformed\jetified-emoji2-1.0.0\AndroidManifest.xml:26:9-34:20
MERGED from [androidx.lifecycle:lifecycle-process:2.4.0] C:\Users\Joni2\.gradle\caches\transforms-3\62e87c3cfe17c830dad51da22e55359f\transformed\jetified-lifecycle-process-2.4.0\AndroidManifest.xml:26:9-34:20
MERGED from [androidx.lifecycle:lifecycle-process:2.4.0] C:\Users\Joni2\.gradle\caches\transforms-3\62e87c3cfe17c830dad51da22e55359f\transformed\jetified-lifecycle-process-2.4.0\AndroidManifest.xml:26:9-34:20
MERGED from [androidx.startup:startup-runtime:1.0.0] C:\Users\Joni2\.gradle\caches\transforms-3\6e2cdf1f1e9a31a51efd2c74a8f81718\transformed\jetified-startup-runtime-1.0.0\AndroidManifest.xml:26:9-30:34
MERGED from [androidx.startup:startup-runtime:1.0.0] C:\Users\Joni2\.gradle\caches\transforms-3\6e2cdf1f1e9a31a51efd2c74a8f81718\transformed\jetified-startup-runtime-1.0.0\AndroidManifest.xml:26:9-30:34
	tools:node
		ADDED from [androidx.emoji2:emoji2:1.0.0] C:\Users\Joni2\.gradle\caches\transforms-3\4b60651704c7d8651ad2c3503bb38c73\transformed\jetified-emoji2-1.0.0\AndroidManifest.xml:30:13-31
	android:authorities
		ADDED from [androidx.emoji2:emoji2:1.0.0] C:\Users\Joni2\.gradle\caches\transforms-3\4b60651704c7d8651ad2c3503bb38c73\transformed\jetified-emoji2-1.0.0\AndroidManifest.xml:28:13-68
	android:exported
		ADDED from [androidx.emoji2:emoji2:1.0.0] C:\Users\Joni2\.gradle\caches\transforms-3\4b60651704c7d8651ad2c3503bb38c73\transformed\jetified-emoji2-1.0.0\AndroidManifest.xml:29:13-37
	android:name
		ADDED from [androidx.emoji2:emoji2:1.0.0] C:\Users\Joni2\.gradle\caches\transforms-3\4b60651704c7d8651ad2c3503bb38c73\transformed\jetified-emoji2-1.0.0\AndroidManifest.xml:27:13-67
meta-data#androidx.emoji2.text.EmojiCompatInitializer
ADDED from [androidx.emoji2:emoji2:1.0.0] C:\Users\Joni2\.gradle\caches\transforms-3\4b60651704c7d8651ad2c3503bb38c73\transformed\jetified-emoji2-1.0.0\AndroidManifest.xml:31:13-33:52
	android:value
		ADDED from [androidx.emoji2:emoji2:1.0.0] C:\Users\Joni2\.gradle\caches\transforms-3\4b60651704c7d8651ad2c3503bb38c73\transformed\jetified-emoji2-1.0.0\AndroidManifest.xml:33:17-49
	android:name
		ADDED from [androidx.emoji2:emoji2:1.0.0] C:\Users\Joni2\.gradle\caches\transforms-3\4b60651704c7d8651ad2c3503bb38c73\transformed\jetified-emoji2-1.0.0\AndroidManifest.xml:32:17-75
uses-library#androidx.window.extensions
ADDED from [androidx.window:window:1.0.0] C:\Users\Joni2\.gradle\caches\transforms-3\87c5c438b7756221a2ec6dd9152be528\transformed\jetified-window-1.0.0\AndroidManifest.xml:25:9-27:40
	android:required
		ADDED from [androidx.window:window:1.0.0] C:\Users\Joni2\.gradle\caches\transforms-3\87c5c438b7756221a2ec6dd9152be528\transformed\jetified-window-1.0.0\AndroidManifest.xml:27:13-37
	android:name
		ADDED from [androidx.window:window:1.0.0] C:\Users\Joni2\.gradle\caches\transforms-3\87c5c438b7756221a2ec6dd9152be528\transformed\jetified-window-1.0.0\AndroidManifest.xml:26:13-54
uses-library#androidx.window.sidecar
ADDED from [androidx.window:window:1.0.0] C:\Users\Joni2\.gradle\caches\transforms-3\87c5c438b7756221a2ec6dd9152be528\transformed\jetified-window-1.0.0\AndroidManifest.xml:28:9-30:40
	android:required
		ADDED from [androidx.window:window:1.0.0] C:\Users\Joni2\.gradle\caches\transforms-3\87c5c438b7756221a2ec6dd9152be528\transformed\jetified-window-1.0.0\AndroidManifest.xml:30:13-37
	android:name
		ADDED from [androidx.window:window:1.0.0] C:\Users\Joni2\.gradle\caches\transforms-3\87c5c438b7756221a2ec6dd9152be528\transformed\jetified-window-1.0.0\AndroidManifest.xml:29:13-51
meta-data#androidx.lifecycle.ProcessLifecycleInitializer
ADDED from [androidx.lifecycle:lifecycle-process:2.4.0] C:\Users\Joni2\.gradle\caches\transforms-3\62e87c3cfe17c830dad51da22e55359f\transformed\jetified-lifecycle-process-2.4.0\AndroidManifest.xml:31:13-33:52
	android:value
		ADDED from [androidx.lifecycle:lifecycle-process:2.4.0] C:\Users\Joni2\.gradle\caches\transforms-3\62e87c3cfe17c830dad51da22e55359f\transformed\jetified-lifecycle-process-2.4.0\AndroidManifest.xml:33:17-49
	android:name
		ADDED from [androidx.lifecycle:lifecycle-process:2.4.0] C:\Users\Joni2\.gradle\caches\transforms-3\62e87c3cfe17c830dad51da22e55359f\transformed\jetified-lifecycle-process-2.4.0\AndroidManifest.xml:32:17-78
